FIFO/simulation/qsim/HWSetEQ1.msim.vcd
$comment
	File created using the following command:
		vcd file HWSetEQ1.msim.vcd -direction
$end
$date
	Thu Oct 19 18:37:43 2017
$end
$version
	ModelSim Version 10.5b
$end
$timescale
	1ps
$end

$scope module HWSetEQ1_vlg_vec_tst $end
$var reg 9 ! DataIn [8:0] $end
$var reg 1 " RdPtrClr $end
$var reg 1 # WrPtrClr $end
$var reg 1 $ clk $end
$var reg 1 % rden $end
$var reg 1 & rdinc $end
$var reg 1 ' wden $end
$var reg 1 ( wrinc $end
$var wire 1 ) DataOut [8] $end
$var wire 1 * DataOut [7] $end
$var wire 1 + DataOut [6] $end
$var wire 1 , DataOut [5] $end
$var wire 1 - DataOut [4] $end
$var wire 1 . DataOut [3] $end
$var wire 1 / DataOut [2] $end
$var wire 1 0 DataOut [1] $end
$var wire 1 1 DataOut [0] $end

$scope module i1 $end
$var wire 1 2 gnd $end
$var wire 1 3 vcc $end
$var wire 1 4 unknown $end
$var tri1 1 5 devclrn $end
$var tri1 1 6 devpor $end
$var tri1 1 7 devoe $end
$var wire 1 8 ~QUARTUS_CREATED_GND~I_combout $end
$var wire 1 9 ~QUARTUS_CREATED_UNVM~~busy $end
$var wire 1 : ~QUARTUS_CREATED_ADC1~~eoc $end
$var wire 1 ; DataOut[0]~output_o $end
$var wire 1 < DataOut[1]~output_o $end
$var wire 1 = DataOut[2]~output_o $end
$var wire 1 > DataOut[3]~output_o $end
$var wire 1 ? DataOut[4]~output_o $end
$var wire 1 @ DataOut[5]~output_o $end
$var wire 1 A DataOut[6]~output_o $end
$var wire 1 B DataOut[7]~output_o $end
$var wire 1 C DataOut[8]~output_o $end
$var wire 1 D clk~input_o $end
$var wire 1 E clk~inputclkctrl_outclk $end
$var wire 1 F RdPtrClr~input_o $end
$var wire 1 G rden~input_o $end
$var wire 1 H rdinc~input_o $end
$var wire 1 I RdPtr~0_combout $end
$var wire 1 J Add0~0_combout $end
$var wire 1 K RdPtr~1_combout $end
$var wire 1 L Add0~1_combout $end
$var wire 1 M RdPtr~2_combout $end
$var wire 1 N Add0~2_combout $end
$var wire 1 O Add0~3_combout $end
$var wire 1 P DataIn[0]~input_o $end
$var wire 1 Q Element[5][0]~feeder_combout $end
$var wire 1 R wden~input_o $end
$var wire 1 S WrPtrClr~input_o $end
$var wire 1 T wrinc~input_o $end
$var wire 1 U WrPtr~0_combout $end
$var wire 1 V Add2~0_combout $end
$var wire 1 W WrPtr~1_combout $end
$var wire 1 X Add2~1_combout $end
$var wire 1 Y WrPtr~2_combout $end
$var wire 1 Z Add2~2_combout $end
$var wire 1 [ Add2~3_combout $end
$var wire 1 \ Decoder0~0_combout $end
$var wire 1 ] Element[5][0]~q $end
$var wire 1 ^ Decoder0~4_combout $end
$var wire 1 _ Element[7][0]~q $end
$var wire 1 ` Element[6][0]~feeder_combout $end
$var wire 1 a Decoder0~1_combout $end
$var wire 1 b Decoder0~2_combout $end
$var wire 1 c Element[6][0]~q $end
$var wire 1 d Decoder0~3_combout $end
$var wire 1 e Element[4][0]~q $end
$var wire 1 f Mux8~0_combout $end
$var wire 1 g Mux8~1_combout $end
$var wire 1 h Decoder0~5_combout $end
$var wire 1 i Element[2][0]~q $end
$var wire 1 j Decoder0~10_combout $end
$var wire 1 k Element[3][0]~q $end
$var wire 1 l Element[1][0]~feeder_combout $end
$var wire 1 m Decoder0~6_combout $end
$var wire 1 n Decoder0~7_combout $end
$var wire 1 o Decoder0~8_combout $end
$var wire 1 p Element[1][0]~q $end
$var wire 1 q Decoder0~9_combout $end
$var wire 1 r Element[0][0]~q $end
$var wire 1 s Mux8~2_combout $end
$var wire 1 t Mux8~3_combout $end
$var wire 1 u Mux8~4_combout $end
$var wire 1 v DataOut[0]~reg0_q $end
$var wire 1 w DataOut[0]~en_q $end
$var wire 1 x DataIn[1]~input_o $end
$var wire 1 y Element[2][1]~feeder_combout $end
$var wire 1 z Element[2][1]~q $end
$var wire 1 { Element[3][1]~q $end
$var wire 1 | Element[1][1]~feeder_combout $end
$var wire 1 } Element[1][1]~q $end
$var wire 1 ~ Element[0][1]~q $end
$var wire 1 !! Mux7~2_combout $end
$var wire 1 "! Mux7~3_combout $end
$var wire 1 #! Element[5][1]~feeder_combout $end
$var wire 1 $! Element[5][1]~q $end
$var wire 1 %! Element[7][1]~q $end
$var wire 1 &! Element[6][1]~q $end
$var wire 1 '! Element[4][1]~q $end
$var wire 1 (! Mux7~0_combout $end
$var wire 1 )! Mux7~1_combout $end
$var wire 1 *! Mux7~4_combout $end
$var wire 1 +! DataOut[1]~reg0_q $end
$var wire 1 ,! DataOut[1]~en_q $end
$var wire 1 -! DataIn[2]~input_o $end
$var wire 1 .! Element[2][2]~feeder_combout $end
$var wire 1 /! Element[2][2]~q $end
$var wire 1 0! Element[3][2]~q $end
$var wire 1 1! Element[1][2]~feeder_combout $end
$var wire 1 2! Element[1][2]~q $end
$var wire 1 3! Element[0][2]~q $end
$var wire 1 4! Mux6~2_combout $end
$var wire 1 5! Mux6~3_combout $end
$var wire 1 6! Element[5][2]~q $end
$var wire 1 7! Element[7][2]~q $end
$var wire 1 8! Element[6][2]~q $end
$var wire 1 9! Element[4][2]~q $end
$var wire 1 :! Mux6~0_combout $end
$var wire 1 ;! Mux6~1_combout $end
$var wire 1 <! Mux6~4_combout $end
$var wire 1 =! DataOut[2]~reg0_q $end
$var wire 1 >! DataOut[2]~en_q $end
$var wire 1 ?! DataIn[3]~input_o $end
$var wire 1 @! Element[5][3]~feeder_combout $end
$var wire 1 A! Element[5][3]~q $end
$var wire 1 B! Element[7][3]~feeder_combout $end
$var wire 1 C! Element[7][3]~q $end
$var wire 1 D! Element[4][3]~feeder_combout $end
$var wire 1 E! Element[4][3]~q $end
$var wire 1 F! Element[6][3]~feeder_combout $end
$var wire 1 G! Element[6][3]~q $end
$var wire 1 H! Mux5~0_combout $end
$var wire 1 I! Mux5~1_combout $end
$var wire 1 J! Element[2][3]~q $end
$var wire 1 K! Element[3][3]~q $end
$var wire 1 L! Element[1][3]~q $end
$var wire 1 M! Element[0][3]~q $end
$var wire 1 N! Mux5~2_combout $end
$var wire 1 O! Mux5~3_combout $end
$var wire 1 P! Mux5~4_combout $end
$var wire 1 Q! DataOut[3]~reg0_q $end
$var wire 1 R! DataOut[3]~en_q $end
$var wire 1 S! DataIn[4]~input_o $end
$var wire 1 T! Element[5][4]~q $end
$var wire 1 U! Element[7][4]~feeder_combout $end
$var wire 1 V! Element[7][4]~q $end
$var wire 1 W! Element[4][4]~feeder_combout $end
$var wire 1 X! Element[4][4]~q $end
$var wire 1 Y! Element[6][4]~feeder_combout $end
$var wire 1 Z! Element[6][4]~q $end
$var wire 1 [! Mux4~0_combout $end
$var wire 1 \! Mux4~1_combout $end
$var wire 1 ]! Element[2][4]~feeder_combout $end
$var wire 1 ^! Element[2][4]~q $end
$var wire 1 _! Element[3][4]~q $end
$var wire 1 `! Element[1][4]~feeder_combout $end
$var wire 1 a! Element[1][4]~q $end
$var wire 1 b! Element[0][4]~q $end
$var wire 1 c! Mux4~2_combout $end
$var wire 1 d! Mux4~3_combout $end
$var wire 1 e! Mux4~4_combout $end
$var wire 1 f! DataOut[4]~reg0_q $end
$var wire 1 g! DataOut[4]~en_q $end
$var wire 1 h! DataIn[5]~input_o $end
$var wire 1 i! Element[2][5]~q $end
$var wire 1 j! Element[3][5]~q $end
$var wire 1 k! Element[1][5]~q $end
$var wire 1 l! Element[0][5]~q $end
$var wire 1 m! Mux3~2_combout $end
$var wire 1 n! Mux3~3_combout $end
$var wire 1 o! Element[5][5]~q $end
$var wire 1 p! Element[7][5]~q $end
$var wire 1 q! Element[6][5]~q $end
$var wire 1 r! Element[4][5]~q $end
$var wire 1 s! Mux3~0_combout $end
$var wire 1 t! Mux3~1_combout $end
$var wire 1 u! Mux3~4_combout $end
$var wire 1 v! DataOut[5]~reg0_q $end
$var wire 1 w! DataOut[5]~en_q $end
$var wire 1 x! DataIn[6]~input_o $end
$var wire 1 y! Element[5][6]~q $end
$var wire 1 z! Element[7][6]~q $end
$var wire 1 {! Element[6][6]~feeder_combout $end
$var wire 1 |! Element[6][6]~q $end
$var wire 1 }! Element[4][6]~q $end
$var wire 1 ~! Mux2~0_combout $end
$var wire 1 !" Mux2~1_combout $end
$var wire 1 "" Element[2][6]~feeder_combout $end
$var wire 1 #" Element[2][6]~q $end
$var wire 1 $" Element[3][6]~q $end
$var wire 1 %" Element[1][6]~feeder_combout $end
$var wire 1 &" Element[1][6]~q $end
$var wire 1 '" Element[0][6]~q $end
$var wire 1 (" Mux2~2_combout $end
$var wire 1 )" Mux2~3_combout $end
$var wire 1 *" Mux2~4_combout $end
$var wire 1 +" DataOut[6]~reg0_q $end
$var wire 1 ," DataOut[6]~en_q $end
$var wire 1 -" DataIn[7]~input_o $end
$var wire 1 ." Element[5][7]~feeder_combout $end
$var wire 1 /" Element[5][7]~q $end
$var wire 1 0" Element[7][7]~q $end
$var wire 1 1" Element[6][7]~q $end
$var wire 1 2" Element[4][7]~q $end
$var wire 1 3" Mux1~0_combout $end
$var wire 1 4" Mux1~1_combout $end
$var wire 1 5" Element[2][7]~q $end
$var wire 1 6" Element[3][7]~q $end
$var wire 1 7" Element[1][7]~q $end
$var wire 1 8" Element[0][7]~q $end
$var wire 1 9" Mux1~2_combout $end
$var wire 1 :" Mux1~3_combout $end
$var wire 1 ;" Mux1~4_combout $end
$var wire 1 <" DataOut[7]~reg0_q $end
$var wire 1 =" DataOut[7]~en_q $end
$var wire 1 >" DataIn[8]~input_o $end
$var wire 1 ?" Element[5][8]~feeder_combout $end
$var wire 1 @" Element[5][8]~q $end
$var wire 1 A" Element[7][8]~q $end
$var wire 1 B" Element[6][8]~q $end
$var wire 1 C" Element[4][8]~q $end
$var wire 1 D" Mux0~0_combout $end
$var wire 1 E" Mux0~1_combout $end
$var wire 1 F" Element[2][8]~feeder_combout $end
$var wire 1 G" Element[2][8]~q $end
$var wire 1 H" Element[3][8]~q $end
$var wire 1 I" Element[1][8]~feeder_combout $end
$var wire 1 J" Element[1][8]~q $end
$var wire 1 K" Element[0][8]~q $end
$var wire 1 L" Mux0~2_combout $end
$var wire 1 M" Mux0~3_combout $end
$var wire 1 N" Mux0~4_combout $end
$var wire 1 O" DataOut[8]~reg0_q $end
$var wire 1 P" DataOut[8]~en_q $end
$var wire 1 Q" RdPtr [2] $end
$var wire 1 R" RdPtr [1] $end
$var wire 1 S" RdPtr [0] $end
$var wire 1 T" WrPtr [2] $end
$var wire 1 U" WrPtr [1] $end
$var wire 1 V" WrPtr [0] $end
$upscope $end
$upscope $end
$enddefinitions $end
#0
$dumpvars
b10 !
0"
0#
0$
0%
0&
0'
0(
z1
z0
z/
z.
z-
z,
z+
z*
z)
02
13
x4
15
16
17
08
z9
z:
z;
z<
z=
z>
z?
z@
zA
zB
zC
0D
0E
0F
0G
0H
0I
0J
0K
0L
0M
0N
0O
0P
0Q
0R
0S
0T
0U
0V
0W
0X
0Y
0Z
0[
0\
0]
0^
0_
0`
0a
0b
0c
0d
0e
0f
0g
0h
0i
0j
0k
0l
0m
0n
0o
0p
0q
0r
0s
0t
0u
0v
0w
1x
1y
0z
0{
1|
0}
0~
0!!
0"!
1#!
0$!
0%!
0&!
0'!
0(!
0)!
0*!
0+!
0,!
0-!
0.!
0/!
00!
01!
02!
03!
04!
05!
06!
07!
08!
09!
0:!
0;!
0<!
0=!
0>!
0?!
0@!
0A!
0B!
0C!
0D!
0E!
0F!
0G!
0H!
0I!
0J!
0K!
0L!
0M!
0N!
0O!
0P!
0Q!
0R!
0S!
0T!
0U!
0V!
0W!
0X!
0Y!
0Z!
0[!
0\!
0]!
0^!
0_!
0`!
0a!
0b!
0c!
0d!
0e!
0f!
0g!
0h!
0i!
0j!
0k!
0l!
0m!
0n!
0o!
0p!
0q!
0r!
0s!
0t!
0u!
0v!
0w!
0x!
0y!
0z!
0{!
0|!
0}!
0~!
0!"
0""
0#"
0$"
0%"
0&"
0'"
0("
0)"
0*"
0+"
0,"
0-"
0."
0/"
00"
01"
02"
03"
04"
05"
06"
07"
08"
09"
0:"
0;"
0<"
0="
0>"
0?"
0@"
0A"
0B"
0C"
0D"
0E"
0F"
0G"
0H"
0I"
0J"
0K"
0L"
0M"
0N"
0O"
0P"
0S"
0R"
0Q"
0V"
0U"
0T"
$end
#5000
1$
1D
1E
#10000
1'
0$
0D
1R
0E
1q
1U
#15000
1$
1D
1E
1~
1V"
1!!
1m
1V
0U
1"!
1o
0q
1W
1*!
#20000
b110 !
b100 !
0'
0$
0D
0R
1-!
0x
0E
0m
0W
1U
11!
1.!
0#!
0|
0y
0o
#25000
1$
1D
1E
1+!
#30000
0$
0D
0E
#35000
1$
1D
1E
#40000
b110 !
0$
0D
1x
0E
1#!
1|
1y
#45000
1$
1D
1E
#50000
1'
0$
0D
1R
0E
1m
1W
0U
1o
#55000
1$
1D
1E
12!
1}
1U"
0V"
1a
1X
0m
0V
1U
0o
1h
#60000
b1110 !
b1010 !
b1000 !
0'
0$
0D
0R
1?!
0-!
0x
0E
0h
0U
1F!
1D!
1B!
1@!
01!
0.!
0#!
0|
0y
#65000
1$
1D
1E
#70000
0$
0D
0E
#75000
1$
1D
1E
#80000
1%
b1010 !
0$
0D
1x
1G
0E
1#!
1|
1y
1I
#85000
1$
1D
1E
1S"
1P"
1="
1,"
1w!
1g!
1R!
1>!
1,!
1w
0;
1<
0=
0>
0?
0@
0A
0B
0C
1J
0)
0*
0+
0,
0-
0.
0/
10
01
0I
14!
1K
15!
1<!
#90000
0$
0D
0E
#95000
1$
1D
1E
1R"
0S"
1=!
1=
1L
0J
1/
1I
05!
04!
0"!
0!!
0<!
0*!
#100000
b1110 !
0%
b1100 !
0$
0D
0G
1-!
0x
0E
0I
11!
1.!
0#!
0|
0y
#105000
1$
1D
1E
0P"
0="
0,"
0w!
0g!
0R!
0>!
0=!
0,!
0+!
0w
z;
z<
z=
z>
z?
z@
zA
zB
zC
z)
z*
z+
z,
z-
z.
z/
z0
z1
#110000
1#
0$
0D
1S
0E
0a
0X
0W
#115000
1$
1D
1E
0U"
#120000
1"
b1110 !
0#
0$
0D
0S
1x
1F
0E
0L
1#!
1|
1y
1!!
0K
1"!
1*!
#125000
1$
1D
1E
0R"
1+!
#130000
0"
0$
0D
0F
0E
#135000
1$
1D
1E
#140000
b11110 !
b10110 !
b10010 !
1%
b10000 !
0$
0D
1G
1S!
0?!
0-!
0x
0E
1I
1`!
1]!
1Y!
1W!
1U!
0F!
0D!
0B!
0@!
01!
0.!
0#!
0|
0y
#145000
1$
1D
1E
1S"
1P"
1="
1,"
1w!
1g!
1R!
1>!
1,!
1w
0;
1<
0=
0>
0?
0@
0A
0B
0C
1J
0)
0*
0+
0,
0-
0.
0/
10
01
0I
14!
1K
15!
1<!
#150000
0%
0$
0D
0G
0E
0K
1I
#155000
1$
1D
1E
0P"
0="
0,"
0w!
0g!
0R!
0>!
1=!
0,!
0w
z;
z<
z=
z>
z?
z@
zA
zB
zC
z)
z*
z+
z,
z-
z.
z/
z0
z1
#160000
1"
b10010 !
0$
0D
1x
1F
0E
0J
1#!
1|
1y
0I
04!
05!
0<!
#165000
1$
1D
1E
0S"
0=!
#170000
0"
0$
0D
0F
0E
#175000
1$
1D
1E
#180000
1'
b10110 !
b10100 !
0$
0D
1-!
0x
1R
0E
1q
11!
1.!
0#!
0|
0y
1U
#185000
1$
1D
1E
1b!
13!
0~
1V"
1c!
14!
0!!
1m
1V
0U
1d!
15!
0"!
1o
0q
1W
1e!
1<!
0*!
#190000
0'
0$
0D
0R
0E
0m
0W
1U
0o
#195000
1$
1D
1E
1f!
1=!
0+!
#200000
b10110 !
1'
0$
0D
1R
1x
0E
1m
1W
0U
1#!
1|
1y
1o
#205000
1$
1D
1E
1a!
1U"
0V"
1a
1X
0m
0V
1U
0o
1h
#210000
0'
0$
0D
0R
0E
0h
0U
#215000
1$
1D
1E
#220000
b11110 !
b11010 !
b11000 !
1'
0$
0D
1R
1?!
0-!
0x
0E
1h
1U
1F!
1D!
1B!
1@!
01!
0.!
0#!
0|
0y
#225000
1$
1D
1E
1^!
1J!
1V"
1m
0a
1V
0U
1j
0h
1Y
0W
#230000
0'
0$
0D
0R
0E
0m
0j
0Y
1W
1U
#235000
1$
1D
1E
#240000
1%
b11010 !
0$
0D
1x
1G
0E
1#!
1|
1y
1I
#245000
1$
1D
1E
1S"
1P"
1="
1,"
1w!
1g!
1R!
1>!
1,!
1w
0;
0<
1=
0>
1?
0@
0A
0B
0C
1J
0)
0*
0+
0,
1-
0.
1/
00
01
0I
1!!
1K
1"!
1*!
#250000
1&
0%
0$
0D
0G
1H
0E
1L
0J
0K
0d!
0c!
1O!
05!
04!
0"!
0!!
1K
1d!
0e!
1P!
0<!
0*!
1e!
#255000
1$
1D
1E
1R"
0S"
0P"
0="
0,"
0w!
0g!
0R!
1Q!
0>!
0=!
0,!
0w
z;
z<
z=
z>
z?
z@
zA
zB
zC
1J
z)
z*
z+
z,
z-
z.
z/
z0
z1
1I
1L"
1D"
19"
13"
1("
1~!
1s!
1m!
1c!
1[!
1N!
1H!
1:!
14!
1(!
1!!
1s
1f
0d!
0O!
0e!
0P!
#260000
b11110 !
b11100 !
0&
1%
0$
0D
1G
0H
1-!
0x
0E
0J
1M
0K
11!
1.!
0#!
0|
0y
0L"
1E"
0D"
09"
14"
03"
0("
1!"
0~!
1t!
0s!
0m!
0c!
1\!
0[!
0N!
1I!
0H!
1;!
0:!
04!
1)!
0(!
0!!
0s
1g
0f
0M
1K
0E"
04"
0!"
0t!
1d!
0\!
1O!
0I!
0;!
0)!
0g
1e!
1P!
#265000
1$
1D
1E
1S"
1P"
1="
1,"
1w!
1g!
1R!
1>!
1,!
1w
0;
0<
0=
1>
1?
0@
0A
0B
0C
1J
0)
0*
0+
0,
1-
1.
0/
00
01
0I
1L"
1D"
19"
13"
1("
1~!
1s!
1m!
1c!
1[!
1N!
1H!
1:!
14!
1(!
1!!
1s
1f
1M
0K
0d!
0O!
0e!
0P!
#270000
1"
0%
0$
0D
0G
1F
0E
0L
0J
0M
1K
1M"
0L"
0D"
1:"
09"
03"
1)"
0("
0~!
0s!
1n!
0m!
1d!
0[!
1O!
0N!
0H!
0:!
15!
0(!
1"!
0!!
1t
0s
0f
1E"
14"
1!"
1t!
1\!
1I!
1;!
1)!
1g
0K
0M"
0E"
0:"
04"
0)"
0!"
0t!
0n!
0\!
0O!
0I!
0;!
0)!
0"!
0t
0g
1N"
1;"
1*"
1u!
1e!
1P!
1<!
1*!
1u
0N"
0;"
0*"
0u!
0P!
0*!
0u
#275000
1$
1D
1E
0R"
0S"
0P"
0="
0,"
0w!
0g!
0R!
0Q!
0>!
1=!
0,!
0w
z;
z<
z=
z>
z?
z@
zA
zB
zC
z)
z*
z+
z,
z-
z.
z/
z0
z1
#280000
b11110 !
0"
1%
0$
0D
1G
0F
1x
0E
1I
1#!
1|
1y
#285000
1$
1D
1E
1S"
1P"
1="
1,"
1w!
1g!
1R!
1>!
1,!
1w
0;
0<
1=
0>
1?
0@
0A
0B
0C
1J
0)
0*
0+
0,
1-
0.
1/
00
01
0I
1!!
1K
1"!
1*!
#290000
0$
0D
0E
#295000
1$
1D
1E
1R"
0S"
1+!
1<
1L
0J
10
1I
0d!
0c!
1O!
05!
04!
0"!
0!!
1d!
0e!
1P!
0<!
0*!
1e!
#300000
b111110 !
b101110 !
b100110 !
b100010 !
b100000 !
0$
0D
1h!
0S!
0?!
0-!
0x
0E
0`!
0]!
0Y!
0W!
0U!
0F!
0D!
0B!
0@!
01!
0.!
0#!
0|
0y
#305000
1$
1D
1E
1S"
1Q!
0=!
0+!
0<
0=
1>
1J
1.
0/
00
0I
1L"
1D"
19"
13"
1("
1~!
1s!
1m!
1c!
1[!
1N!
1H!
1:!
14!
1(!
1!!
1s
1f
1M
0K
0d!
0O!
0e!
0P!
#310000
0%
0$
0D
0G
0E
0M
1K
1I
#315000
1$
1D
1E
0P"
0="
0,"
0w!
0g!
0f!
0R!
0Q!
0>!
0,!
0w
z;
z<
z=
z>
z?
z@
zA
zB
zC
z)
z*
z+
z,
z-
z.
z/
z0
z1
#320000
1(
b100010 !
0$
0D
1x
1T
0E
1Z
0X
0V
1#!
1|
1y
0U
1[
0W
1Y
#325000
1$
1D
1E
1T"
0U"
0V"
1n
0[
0Z
1V
1U
1[
0Y
1Y
#330000
0$
0D
0E
#335000
1$
1D
1E
1V"
1a
1X
0V
0U
1W
#340000
b100110 !
0(
b100100 !
0$
0D
0T
1-!
0x
0E
0a
0X
1V
1U
11!
1.!
0#!
0|
0y
0W
#345000
1$
1D
1E
#350000
1'
0$
0D
1R
0E
1m
1\
1W
0U
#355000
1$
1D
1E
1o!
16!
1U"
0V"
1a
1X
0m
0V
1U
1b
0\
#360000
b100110 !
0'
0$
0D
0R
1x
0E
0b
0U
1#!
1|
1y
#365000
1$
1D
1E
#370000
1'
0$
0D
1R
0E
1b
1U
#375000
1$
1D
1E
1q!
18!
1&!
1V"
1m
0a
1V
0U
0b
1^
0Y
0W
#380000
1"
b101110 !
b101010 !
b101000 !
0'
0$
0D
0R
1?!
0-!
0x
1F
0E
0m
0^
0L
0J
1Y
1W
1U
1F!
1D!
1B!
1@!
01!
0.!
0#!
0|
0y
0I
1M"
0L"
0D"
1:"
09"
03"
1)"
0("
0~!
0s!
1n!
0m!
1d!
0[!
1O!
0N!
0H!
0:!
15!
0(!
1"!
0!!
1t
0s
0f
1E"
14"
1!"
1t!
1\!
1I!
1;!
1)!
1g
0K
0M"
0E"
0:"
04"
0)"
0!"
0t!
0n!
0\!
0O!
0I!
0;!
0)!
0"!
0t
0g
1N"
1;"
1*"
1u!
1e!
1P!
1<!
1*!
1u
0N"
0;"
0*"
0u!
0P!
0*!
0u
#385000
1$
1D
1E
0R"
0S"
1f!
1=!
#390000
0"
0$
0D
0F
0E
#395000
1$
1D
1E
#400000
b101010 !
0$
0D
1x
0E
1#!
1|
1y
#405000
1$
1D
1E
#410000
1%
0$
0D
1G
0E
1I
#415000
1$
1D
1E
1S"
1P"
1="
1,"
1w!
1g!
1R!
1>!
1,!
1w
0;
0<
1=
0>
1?
0@
0A
0B
0C
1J
0)
0*
0+
0,
1-
0.
1/
00
01
0I
1t!
1;!
1!!
1K
1"!
1*!
#420000
b101110 !
b101100 !
0$
0D
1-!
0x
0E
11!
1.!
0#!
0|
0y
#425000
1$
1D
1E
1R"
0S"
1+!
1<
1L
0J
10
1I
1s!
0d!
0c!
1O!
1:!
05!
04!
1(!
0"!
0!!
0t!
0;!
1t!
1d!
1;!
1)!
0e!
1P!
0<!
0*!
1e!
#430000
0$
0D
0E
#435000
1$
1D
1E
1S"
1Q!
0=!
0+!
0<
0=
1>
1J
1.
0/
00
0I
1L"
1D"
19"
13"
1("
1~!
0t!
1m!
1c!
1[!
1N!
1H!
0;!
14!
0)!
1!!
1s
1f
1M
0K
0d!
0O!
0e!
0P!
#440000
b101110 !
0$
0D
1x
0E
1#!
1|
1y
#445000
1$
1D
1E
1Q"
0R"
0S"
0f!
0Q!
0>
0?
1O
0L
0J
0-
0.
1I
1M"
0L"
0D"
1:"
09"
03"
1)"
0("
0~!
0s!
1n!
0m!
1d!
0[!
1O!
0N!
0H!
0:!
15!
0(!
1"!
0!!
1t
0s
0f
1E"
14"
1!"
1t!
1\!
1I!
1;!
1)!
1g
0M"
0E"
0:"
04"
0)"
0!"
0t!
0n!
0\!
0O!
0I!
0;!
0)!
0"!
0t
0g
1N"
1;"
1*"
1u!
1e!
1P!
1<!
1*!
1u
0N"
0;"
0*"
0u!
0e!
0P!
0<!
0*!
0u
#450000
0$
0D
0E
#455000
1$
1D
1E
1S"
1J
0I
1t!
1;!
1!!
1K
1"!
1u!
1<!
#460000
b111110 !
b110110 !
b110010 !
b110000 !
0$
0D
1S!
0?!
0-!
0x
0E
1`!
1]!
1Y!
1W!
1U!
0F!
0D!
0B!
0@!
01!
0.!
0#!
0|
0y
#465000
1$
1D
1E
1R"
0S"
1v!
1=!
1=
1@
1L
0J
1,
1/
1I
1s!
0d!
0c!
1O!
1:!
05!
04!
1(!
0"!
0!!
0t!
0;!
1t!
1d!
1;!
1)!
0<!
0u!
1u!
1<!
1*!
#470000
0$
0D
0E
#475000
1$
1D
1E
1S"
1+!
1<
1J
10
0I
1L"
1D"
19"
13"
1("
1~!
0t!
1m!
1c!
1[!
1N!
1H!
0;!
14!
0)!
1!!
1s
1f
0M
0K
0d!
0O!
0u!
0<!
0*!
#480000
0%
b110010 !
0$
0D
1x
0G
0E
1#!
1|
1y
1M
1K
1I
#485000
1$
1D
1E
0P"
0="
0,"
0w!
0v!
0g!
0R!
0>!
0=!
0,!
0+!
0w
z;
z<
z=
z>
z?
z@
zA
zB
zC
z)
z*
z+
z,
z-
z.
z/
z0
z1
#490000
1#
1"
0$
0D
1F
1S
0E
0O
0L
0J
0n
0[
0X
0V
0I
0U
1M"
0L"
0D"
1:"
09"
03"
1)"
0("
0~!
0s!
1n!
0m!
1d!
0[!
1O!
0N!
0H!
0:!
15!
0(!
1"!
0!!
1t
0s
0f
1E"
14"
1!"
1t!
1\!
1I!
1;!
1)!
1g
0M
0K
0Y
0W
0M"
0E"
0:"
04"
0)"
0!"
0t!
0n!
0\!
0O!
0I!
0;!
0)!
0"!
0t
0g
1N"
1;"
1*"
1u!
1e!
1P!
1<!
1*!
1u
0N"
0;"
0*"
0u!
0P!
0*!
0u
#495000
1$
1D
1E
0T"
0U"
0V"
0Q"
0R"
0S"
1f!
1=!
#500000
b110110 !
b110100 !
0#
0"
0$
0D
0F
0S
1-!
0x
0E
11!
1.!
0#!
0|
0y
#505000
1$
1D
1E
#510000
0$
0D
0E
#515000
1$
1D
1E
#520000
1'
b110110 !
0$
0D
1x
1R
0E
1q
1#!
1|
1y
1U
#525000
1$
1D
1E
1l!
1~
1V"
1m!
1!!
1m
1V
0U
1n!
1"!
1o
0q
1W
1u!
1*!
#530000
1%
0'
0$
0D
0R
1G
0E
0m
0W
1U
1I
0o
#535000
1$
1D
1E
1S"
1P"
1="
1,"
1w!
1v!
1g!
1R!
1>!
1,!
1+!
1w
0;
1<
1=
0>
1?
1@
0A
0B
0C
1J
0)
0*
0+
1,
1-
0.
1/
10
01
0I
1t!
0m!
1;!
1K
0n!
0u!
#540000
b111110 !
b111010 !
b111000 !
0$
0D
1?!
0-!
0x
0E
1F!
1D!
1B!
1@!
01!
0.!
0#!
0|
0y
#545000
1$
1D
1E
1R"
0S"
0v!
0@
1L
0J
0,
1I
1s!
0d!
0c!
1O!
1:!
05!
04!
1(!
0"!
0!!
0t!
0;!
1t!
1d!
1;!
1)!
0e!
1P!
0<!
0*!
1e!
#550000
0$
0D
0E
#555000
1$
1D
1E
1S"
1Q!
0=!
0+!
0<
0=
1>
1J
1.
0/
00
0I
1L"
1D"
19"
13"
1("
1~!
0t!
1m!
1c!
1[!
1N!
1H!
0;!
14!
0)!
1!!
1s
1f
1M
0K
0d!
0O!
0e!
0P!
#560000
0%
b111010 !
0$
0D
1x
0G
0E
1#!
1|
1y
0M
1K
1I
#565000
1$
1D
1E
0P"
0="
0,"
0w!
0g!
0f!
0R!
0Q!
0>!
0,!
0w
z;
z<
z=
z>
z?
z@
zA
zB
zC
z)
z*
z+
z,
z-
z.
z/
z0
z1
#570000
0$
0D
0E
#575000
1$
1D
1E
#580000
1"
b111110 !
b111100 !
0$
0D
1-!
0x
1F
0E
0L
0J
11!
1.!
0#!
0|
0y
0I
1M"
0L"
0D"
1:"
09"
03"
1)"
0("
0~!
0s!
1n!
1d!
0[!
1O!
0N!
0H!
0:!
15!
0(!
1"!
1t
0s
0f
1E"
14"
1!"
1t!
1\!
1I!
1;!
1)!
1g
0K
0M"
0E"
0:"
04"
0)"
0!"
0t!
0\!
0O!
0I!
0;!
0)!
0t
0g
1N"
1;"
1*"
1u!
1e!
1P!
1<!
1*!
1u
0N"
0;"
0*"
0P!
0u
#585000
1$
1D
1E
0R"
0S"
1v!
1f!
1=!
1+!
#590000
0"
0$
0D
0F
0E
#595000
1$
1D
1E
#600000
b111110 !
0$
0D
1x
0E
1#!
1|
1y
#605000
1$
1D
1E
#610000
0$
0D
0E
#615000
1$
1D
1E
#620000
b1111110 !
b1011110 !
b1001110 !
b1000110 !
b1000010 !
b1000000 !
0$
0D
1x!
0h!
0S!
0?!
0-!
0x
0E
1%"
1""
1{!
0`!
0]!
0Y!
0W!
0U!
0F!
0D!
0B!
0@!
01!
0.!
0#!
0|
0y
#625000
1$
1D
1E
#630000
1%
0$
0D
1G
0E
1I
#635000
1$
1D
1E
1S"
1P"
1="
1,"
1w!
1g!
1R!
1>!
1,!
1w
0;
1<
1=
0>
1?
1@
0A
0B
0C
1J
0)
0*
0+
1,
1-
0.
1/
10
01
0I
1t!
0m!
1;!
1K
0n!
0u!
#640000
b1000010 !
0$
0D
1x
0E
1#!
1|
1y
#645000
1$
1D
1E
1R"
0S"
0v!
0@
1L
0J
0,
1I
1s!
0d!
0c!
1O!
1:!
05!
04!
1(!
0"!
0!!
0t!
0;!
1t!
1d!
1;!
1)!
0e!
1P!
0<!
0*!
1e!
#650000
0$
0D
0E
#655000
1$
1D
1E
1S"
1Q!
0=!
0+!
0<
0=
1>
1J
1.
0/
00
0I
1L"
1D"
19"
13"
1("
1~!
0t!
1m!
1c!
1[!
1N!
1H!
0;!
14!
0)!
1!!
1s
1f
1M
0K
0d!
0O!
0e!
0P!
#660000
b1000110 !
b1000100 !
0$
0D
1-!
0x
0E
11!
1.!
0#!
0|
0y
