ALU/simulation/qsim/HWSetEQ2.msim.vcd
$comment
	File created using the following command:
		vcd file HWSetEQ2.msim.vcd -direction
$end
$date
	Thu Oct 19 20:05:41 2017
$end
$version
	ModelSim Version 10.5b
$end
$timescale
	1ps
$end

$scope module HWSetEQ2_vlg_vec_tst $end
$var reg 32 ! A [31:0] $end
$var reg 32 " B [31:0] $end
$var reg 1 # Clock $end
$var reg 5 $ Op [4:0] $end
$var reg 32 % treg_Y_temp [31:0] $end
$var wire 1 & Y [31] $end
$var wire 1 ' Y [30] $end
$var wire 1 ( Y [29] $end
$var wire 1 ) Y [28] $end
$var wire 1 * Y [27] $end
$var wire 1 + Y [26] $end
$var wire 1 , Y [25] $end
$var wire 1 - Y [24] $end
$var wire 1 . Y [23] $end
$var wire 1 / Y [22] $end
$var wire 1 0 Y [21] $end
$var wire 1 1 Y [20] $end
$var wire 1 2 Y [19] $end
$var wire 1 3 Y [18] $end
$var wire 1 4 Y [17] $end
$var wire 1 5 Y [16] $end
$var wire 1 6 Y [15] $end
$var wire 1 7 Y [14] $end
$var wire 1 8 Y [13] $end
$var wire 1 9 Y [12] $end
$var wire 1 : Y [11] $end
$var wire 1 ; Y [10] $end
$var wire 1 < Y [9] $end
$var wire 1 = Y [8] $end
$var wire 1 > Y [7] $end
$var wire 1 ? Y [6] $end
$var wire 1 @ Y [5] $end
$var wire 1 A Y [4] $end
$var wire 1 B Y [3] $end
$var wire 1 C Y [2] $end
$var wire 1 D Y [1] $end
$var wire 1 E Y [0] $end
$var wire 1 F Y_temp [31] $end
$var wire 1 G Y_temp [30] $end
$var wire 1 H Y_temp [29] $end
$var wire 1 I Y_temp [28] $end
$var wire 1 J Y_temp [27] $end
$var wire 1 K Y_temp [26] $end
$var wire 1 L Y_temp [25] $end
$var wire 1 M Y_temp [24] $end
$var wire 1 N Y_temp [23] $end
$var wire 1 O Y_temp [22] $end
$var wire 1 P Y_temp [21] $end
$var wire 1 Q Y_temp [20] $end
$var wire 1 R Y_temp [19] $end
$var wire 1 S Y_temp [18] $end
$var wire 1 T Y_temp [17] $end
$var wire 1 U Y_temp [16] $end
$var wire 1 V Y_temp [15] $end
$var wire 1 W Y_temp [14] $end
$var wire 1 X Y_temp [13] $end
$var wire 1 Y Y_temp [12] $end
$var wire 1 Z Y_temp [11] $end
$var wire 1 [ Y_temp [10] $end
$var wire 1 \ Y_temp [9] $end
$var wire 1 ] Y_temp [8] $end
$var wire 1 ^ Y_temp [7] $end
$var wire 1 _ Y_temp [6] $end
$var wire 1 ` Y_temp [5] $end
$var wire 1 a Y_temp [4] $end
$var wire 1 b Y_temp [3] $end
$var wire 1 c Y_temp [2] $end
$var wire 1 d Y_temp [1] $end
$var wire 1 e Y_temp [0] $end

$scope module i1 $end
$var wire 1 f gnd $end
$var wire 1 g vcc $end
$var wire 1 h unknown $end
$var tri1 1 i devclrn $end
$var tri1 1 j devpor $end
$var tri1 1 k devoe $end
$var wire 1 l Y_temp[0]~input_o $end
$var wire 1 m Y_temp[1]~input_o $end
$var wire 1 n Y_temp[2]~input_o $end
$var wire 1 o Y_temp[3]~input_o $end
$var wire 1 p Y_temp[4]~input_o $end
$var wire 1 q Y_temp[5]~input_o $end
$var wire 1 r Y_temp[6]~input_o $end
$var wire 1 s Y_temp[7]~input_o $end
$var wire 1 t Y_temp[8]~input_o $end
$var wire 1 u Y_temp[9]~input_o $end
$var wire 1 v Y_temp[10]~input_o $end
$var wire 1 w Y_temp[11]~input_o $end
$var wire 1 x Y_temp[12]~input_o $end
$var wire 1 y Y_temp[13]~input_o $end
$var wire 1 z Y_temp[14]~input_o $end
$var wire 1 { Y_temp[15]~input_o $end
$var wire 1 | Y_temp[16]~input_o $end
$var wire 1 } Y_temp[17]~input_o $end
$var wire 1 ~ Y_temp[18]~input_o $end
$var wire 1 !! Y_temp[19]~input_o $end
$var wire 1 "! Y_temp[20]~input_o $end
$var wire 1 #! Y_temp[21]~input_o $end
$var wire 1 $! Y_temp[22]~input_o $end
$var wire 1 %! Y_temp[23]~input_o $end
$var wire 1 &! Y_temp[24]~input_o $end
$var wire 1 '! Y_temp[25]~input_o $end
$var wire 1 (! Y_temp[26]~input_o $end
$var wire 1 )! Y_temp[27]~input_o $end
$var wire 1 *! Y_temp[28]~input_o $end
$var wire 1 +! Y_temp[29]~input_o $end
$var wire 1 ,! Y_temp[30]~input_o $end
$var wire 1 -! Y_temp[31]~input_o $end
$var wire 1 .! ~QUARTUS_CREATED_GND~I_combout $end
$var wire 1 /! ~QUARTUS_CREATED_UNVM~~busy $end
$var wire 1 0! ~QUARTUS_CREATED_ADC1~~eoc $end
$var wire 1 1! Y_temp[0]~output_o $end
$var wire 1 2! Y_temp[1]~output_o $end
$var wire 1 3! Y_temp[2]~output_o $end
$var wire 1 4! Y_temp[3]~output_o $end
$var wire 1 5! Y_temp[4]~output_o $end
$var wire 1 6! Y_temp[5]~output_o $end
$var wire 1 7! Y_temp[6]~output_o $end
$var wire 1 8! Y_temp[7]~output_o $end
$var wire 1 9! Y_temp[8]~output_o $end
$var wire 1 :! Y_temp[9]~output_o $end
$var wire 1 ;! Y_temp[10]~output_o $end
$var wire 1 <! Y_temp[11]~output_o $end
$var wire 1 =! Y_temp[12]~output_o $end
$var wire 1 >! Y_temp[13]~output_o $end
$var wire 1 ?! Y_temp[14]~output_o $end
$var wire 1 @! Y_temp[15]~output_o $end
$var wire 1 A! Y_temp[16]~output_o $end
$var wire 1 B! Y_temp[17]~output_o $end
$var wire 1 C! Y_temp[18]~output_o $end
$var wire 1 D! Y_temp[19]~output_o $end
$var wire 1 E! Y_temp[20]~output_o $end
$var wire 1 F! Y_temp[21]~output_o $end
$var wire 1 G! Y_temp[22]~output_o $end
$var wire 1 H! Y_temp[23]~output_o $end
$var wire 1 I! Y_temp[24]~output_o $end
$var wire 1 J! Y_temp[25]~output_o $end
$var wire 1 K! Y_temp[26]~output_o $end
$var wire 1 L! Y_temp[27]~output_o $end
$var wire 1 M! Y_temp[28]~output_o $end
$var wire 1 N! Y_temp[29]~output_o $end
$var wire 1 O! Y_temp[30]~output_o $end
$var wire 1 P! Y_temp[31]~output_o $end
$var wire 1 Q! Y[0]~output_o $end
$var wire 1 R! Y[1]~output_o $end
$var wire 1 S! Y[2]~output_o $end
$var wire 1 T! Y[3]~output_o $end
$var wire 1 U! Y[4]~output_o $end
$var wire 1 V! Y[5]~output_o $end
$var wire 1 W! Y[6]~output_o $end
$var wire 1 X! Y[7]~output_o $end
$var wire 1 Y! Y[8]~output_o $end
$var wire 1 Z! Y[9]~output_o $end
$var wire 1 [! Y[10]~output_o $end
$var wire 1 \! Y[11]~output_o $end
$var wire 1 ]! Y[12]~output_o $end
$var wire 1 ^! Y[13]~output_o $end
$var wire 1 _! Y[14]~output_o $end
$var wire 1 `! Y[15]~output_o $end
$var wire 1 a! Y[16]~output_o $end
$var wire 1 b! Y[17]~output_o $end
$var wire 1 c! Y[18]~output_o $end
$var wire 1 d! Y[19]~output_o $end
$var wire 1 e! Y[20]~output_o $end
$var wire 1 f! Y[21]~output_o $end
$var wire 1 g! Y[22]~output_o $end
$var wire 1 h! Y[23]~output_o $end
$var wire 1 i! Y[24]~output_o $end
$var wire 1 j! Y[25]~output_o $end
$var wire 1 k! Y[26]~output_o $end
$var wire 1 l! Y[27]~output_o $end
$var wire 1 m! Y[28]~output_o $end
$var wire 1 n! Y[29]~output_o $end
$var wire 1 o! Y[30]~output_o $end
$var wire 1 p! Y[31]~output_o $end
$var wire 1 q! Clock~input_o $end
$var wire 1 r! Clock~inputclkctrl_outclk $end
$var wire 1 s! Op[3]~input_o $end
$var wire 1 t! A[1]~input_o $end
$var wire 1 u! B[1]~input_o $end
$var wire 1 v! Op[4]~input_o $end
$var wire 1 w! Add0~0_combout $end
$var wire 1 x! A[0]~input_o $end
$var wire 1 y! B[0]~input_o $end
$var wire 1 z! Add0~1_combout $end
$var wire 1 {! Op[2]~input_o $end
$var wire 1 |! Add0~3_cout $end
$var wire 1 }! Add0~5 $end
$var wire 1 ~! Add0~6_combout $end
$var wire 1 !" Mux30~0_combout $end
$var wire 1 "" Add0~8_combout $end
$var wire 1 #" Op[1]~input_o $end
$var wire 1 $" Add0~4_combout $end
$var wire 1 %" Mux31~0_combout $end
$var wire 1 &" Add0~9_combout $end
$var wire 1 '" Mux63~0_combout $end
$var wire 1 (" Op[0]~input_o $end
$var wire 1 )" Y_temp[0]~reg0_q $end
$var wire 1 *" Y_temp[1]~0_combout $end
$var wire 1 +" A[2]~input_o $end
$var wire 1 ," B[2]~input_o $end
$var wire 1 -" Add0~10_combout $end
$var wire 1 ." Add0~7 $end
$var wire 1 /" Add0~11_combout $end
$var wire 1 0" Mux29~0_combout $end
$var wire 1 1" Add0~13_combout $end
$var wire 1 2" Y_temp[14]~94_combout $end
$var wire 1 3" Y_temp[1]~reg0_q $end
$var wire 1 4" Y_temp[2]~1_combout $end
$var wire 1 5" A[3]~input_o $end
$var wire 1 6" B[3]~input_o $end
$var wire 1 7" Mux28~0_combout $end
$var wire 1 8" Add0~14_combout $end
$var wire 1 9" Add0~12 $end
$var wire 1 :" Add0~15_combout $end
$var wire 1 ;" Add0~17_combout $end
$var wire 1 <" Y_temp[2]~reg0_q $end
$var wire 1 =" Y_temp[3]~2_combout $end
$var wire 1 >" B[4]~input_o $end
$var wire 1 ?" Add0~18_combout $end
$var wire 1 @" A[4]~input_o $end
$var wire 1 A" Add0~16 $end
$var wire 1 B" Add0~19_combout $end
$var wire 1 C" Mux27~0_combout $end
$var wire 1 D" Add0~21_combout $end
$var wire 1 E" Y_temp[3]~reg0_q $end
$var wire 1 F" Y_temp[4]~3_combout $end
$var wire 1 G" B[5]~input_o $end
$var wire 1 H" Add0~22_combout $end
$var wire 1 I" A[5]~input_o $end
$var wire 1 J" Add0~20 $end
$var wire 1 K" Add0~23_combout $end
$var wire 1 L" Mux26~0_combout $end
$var wire 1 M" Add0~25_combout $end
$var wire 1 N" Y_temp[4]~reg0_q $end
$var wire 1 O" Y_temp[5]~4_combout $end
$var wire 1 P" A[6]~input_o $end
$var wire 1 Q" B[6]~input_o $end
$var wire 1 R" Add0~26_combout $end
$var wire 1 S" Add0~24 $end
$var wire 1 T" Add0~27_combout $end
$var wire 1 U" Mux25~0_combout $end
$var wire 1 V" Add0~29_combout $end
$var wire 1 W" Y_temp[5]~reg0_q $end
$var wire 1 X" Y_temp[6]~5_combout $end
$var wire 1 Y" A[7]~input_o $end
$var wire 1 Z" B[7]~input_o $end
$var wire 1 [" Add0~30_combout $end
$var wire 1 \" Add0~28 $end
$var wire 1 ]" Add0~31_combout $end
$var wire 1 ^" Mux24~0_combout $end
$var wire 1 _" Add0~33_combout $end
$var wire 1 `" Y_temp[6]~reg0_q $end
$var wire 1 a" Y_temp[7]~6_combout $end
$var wire 1 b" A[8]~input_o $end
$var wire 1 c" B[8]~input_o $end
$var wire 1 d" Mux23~0_combout $end
$var wire 1 e" Add0~34_combout $end
$var wire 1 f" Add0~32 $end
$var wire 1 g" Add0~35_combout $end
$var wire 1 h" Add0~37_combout $end
$var wire 1 i" Y_temp[7]~reg0_q $end
$var wire 1 j" Y_temp[8]~7_combout $end
$var wire 1 k" A[9]~input_o $end
$var wire 1 l" B[9]~input_o $end
$var wire 1 m" Add0~38_combout $end
$var wire 1 n" Add0~36 $end
$var wire 1 o" Add0~39_combout $end
$var wire 1 p" Mux22~0_combout $end
$var wire 1 q" Add0~41_combout $end
$var wire 1 r" Y_temp[8]~reg0_q $end
$var wire 1 s" Y_temp[9]~8_combout $end
$var wire 1 t" A[10]~input_o $end
$var wire 1 u" B[10]~input_o $end
$var wire 1 v" Mux21~0_combout $end
$var wire 1 w" Add0~42_combout $end
$var wire 1 x" Add0~40 $end
$var wire 1 y" Add0~43_combout $end
$var wire 1 z" Add0~45_combout $end
$var wire 1 {" Y_temp[9]~reg0_q $end
$var wire 1 |" Y_temp[10]~9_combout $end
$var wire 1 }" A[11]~input_o $end
$var wire 1 ~" B[11]~input_o $end
$var wire 1 !# Mux20~0_combout $end
$var wire 1 "# Add0~46_combout $end
$var wire 1 ## Add0~44 $end
$var wire 1 $# Add0~47_combout $end
$var wire 1 %# Add0~49_combout $end
$var wire 1 &# Y_temp[10]~reg0_q $end
$var wire 1 '# Y_temp[11]~10_combout $end
$var wire 1 (# A[12]~input_o $end
$var wire 1 )# B[12]~input_o $end
$var wire 1 *# Mux19~0_combout $end
$var wire 1 +# Add0~50_combout $end
$var wire 1 ,# Add0~48 $end
$var wire 1 -# Add0~51_combout $end
$var wire 1 .# Add0~53_combout $end
$var wire 1 /# Y_temp[11]~reg0_q $end
$var wire 1 0# Y_temp[12]~11_combout $end
$var wire 1 1# A[13]~input_o $end
$var wire 1 2# B[13]~input_o $end
$var wire 1 3# Add0~54_combout $end
$var wire 1 4# Add0~52 $end
$var wire 1 5# Add0~55_combout $end
$var wire 1 6# Mux18~0_combout $end
$var wire 1 7# Add0~57_combout $end
$var wire 1 8# Y_temp[12]~reg0_q $end
$var wire 1 9# Y_temp[13]~12_combout $end
$var wire 1 :# A[14]~input_o $end
$var wire 1 ;# B[14]~input_o $end
$var wire 1 <# Add0~58_combout $end
$var wire 1 =# Add0~56 $end
$var wire 1 ># Add0~59_combout $end
$var wire 1 ?# Mux17~0_combout $end
$var wire 1 @# Add0~61_combout $end
$var wire 1 A# Y_temp[13]~reg0_q $end
$var wire 1 B# Y_temp[14]~13_combout $end
$var wire 1 C# B[15]~input_o $end
$var wire 1 D# Add0~62_combout $end
$var wire 1 E# A[15]~input_o $end
$var wire 1 F# Add0~60 $end
$var wire 1 G# Add0~63_combout $end
$var wire 1 H# Mux16~0_combout $end
$var wire 1 I# Add0~65_combout $end
$var wire 1 J# Y_temp[14]~reg0_q $end
$var wire 1 K# Y_temp[15]~14_combout $end
$var wire 1 L# A[16]~input_o $end
$var wire 1 M# B[16]~input_o $end
$var wire 1 N# Mux15~0_combout $end
$var wire 1 O# Add0~66_combout $end
$var wire 1 P# Add0~64 $end
$var wire 1 Q# Add0~67_combout $end
$var wire 1 R# Add0~69_combout $end
$var wire 1 S# Y_temp[15]~reg0_q $end
$var wire 1 T# Y_temp[16]~15_combout $end
$var wire 1 U# B[17]~input_o $end
$var wire 1 V# Add0~70_combout $end
$var wire 1 W# A[17]~input_o $end
$var wire 1 X# Add0~68 $end
$var wire 1 Y# Add0~71_combout $end
$var wire 1 Z# Mux14~0_combout $end
$var wire 1 [# Add0~73_combout $end
$var wire 1 \# Y_temp[16]~reg0_q $end
$var wire 1 ]# Y_temp[17]~16_combout $end
$var wire 1 ^# A[18]~input_o $end
$var wire 1 _# B[18]~input_o $end
$var wire 1 `# Mux13~0_combout $end
$var wire 1 a# Add0~74_combout $end
$var wire 1 b# Add0~72 $end
$var wire 1 c# Add0~75_combout $end
$var wire 1 d# Add0~77_combout $end
$var wire 1 e# Y_temp[17]~reg0_q $end
$var wire 1 f# Y_temp[18]~17_combout $end
$var wire 1 g# A[19]~input_o $end
$var wire 1 h# B[19]~input_o $end
$var wire 1 i# Mux12~0_combout $end
$var wire 1 j# Add0~78_combout $end
$var wire 1 k# Add0~76 $end
$var wire 1 l# Add0~79_combout $end
$var wire 1 m# Add0~81_combout $end
$var wire 1 n# Y_temp[18]~reg0_q $end
$var wire 1 o# Y_temp[19]~18_combout $end
$var wire 1 p# B[20]~input_o $end
$var wire 1 q# A[20]~input_o $end
$var wire 1 r# Mux11~0_combout $end
$var wire 1 s# Add0~82_combout $end
$var wire 1 t# Add0~80 $end
$var wire 1 u# Add0~83_combout $end
$var wire 1 v# Add0~85_combout $end
$var wire 1 w# Y_temp[19]~reg0_q $end
$var wire 1 x# Y_temp[20]~19_combout $end
$var wire 1 y# B[21]~input_o $end
$var wire 1 z# Add0~86_combout $end
$var wire 1 {# A[21]~input_o $end
$var wire 1 |# Add0~84 $end
$var wire 1 }# Add0~87_combout $end
$var wire 1 ~# Mux10~0_combout $end
$var wire 1 !$ Add0~89_combout $end
$var wire 1 "$ Y_temp[20]~reg0_q $end
$var wire 1 #$ Y_temp[21]~20_combout $end
$var wire 1 $$ A[22]~input_o $end
$var wire 1 %$ B[22]~input_o $end
$var wire 1 &$ Mux9~0_combout $end
$var wire 1 '$ Add0~90_combout $end
$var wire 1 ($ Add0~88 $end
$var wire 1 )$ Add0~91_combout $end
$var wire 1 *$ Add0~93_combout $end
$var wire 1 +$ Y_temp[21]~reg0_q $end
$var wire 1 ,$ Y_temp[22]~21_combout $end
$var wire 1 -$ B[23]~input_o $end
$var wire 1 .$ Add0~94_combout $end
$var wire 1 /$ A[23]~input_o $end
$var wire 1 0$ Add0~92 $end
$var wire 1 1$ Add0~95_combout $end
$var wire 1 2$ Mux8~0_combout $end
$var wire 1 3$ Add0~97_combout $end
$var wire 1 4$ Y_temp[22]~reg0_q $end
$var wire 1 5$ Y_temp[23]~22_combout $end
$var wire 1 6$ A[24]~input_o $end
$var wire 1 7$ B[24]~input_o $end
$var wire 1 8$ Add0~98_combout $end
$var wire 1 9$ Add0~96 $end
$var wire 1 :$ Add0~99_combout $end
$var wire 1 ;$ Mux7~0_combout $end
$var wire 1 <$ Add0~101_combout $end
$var wire 1 =$ Y_temp[23]~reg0_q $end
$var wire 1 >$ Y_temp[24]~23_combout $end
$var wire 1 ?$ A[25]~input_o $end
$var wire 1 @$ B[25]~input_o $end
$var wire 1 A$ Mux6~0_combout $end
$var wire 1 B$ Add0~102_combout $end
$var wire 1 C$ Add0~100 $end
$var wire 1 D$ Add0~103_combout $end
$var wire 1 E$ Add0~105_combout $end
$var wire 1 F$ Y_temp[24]~reg0_q $end
$var wire 1 G$ Y_temp[25]~24_combout $end
$var wire 1 H$ A[26]~input_o $end
$var wire 1 I$ B[26]~input_o $end
$var wire 1 J$ Mux5~0_combout $end
$var wire 1 K$ Add0~106_combout $end
$var wire 1 L$ Add0~104 $end
$var wire 1 M$ Add0~107_combout $end
$var wire 1 N$ Add0~109_combout $end
$var wire 1 O$ Y_temp[25]~reg0_q $end
$var wire 1 P$ Y_temp[26]~25_combout $end
$var wire 1 Q$ A[27]~input_o $end
$var wire 1 R$ B[27]~input_o $end
$var wire 1 S$ Mux4~0_combout $end
$var wire 1 T$ Add0~110_combout $end
$var wire 1 U$ Add0~108 $end
$var wire 1 V$ Add0~111_combout $end
$var wire 1 W$ Add0~113_combout $end
$var wire 1 X$ Y_temp[26]~reg0_q $end
$var wire 1 Y$ Y_temp[27]~26_combout $end
$var wire 1 Z$ A[28]~input_o $end
$var wire 1 [$ B[28]~input_o $end
$var wire 1 \$ Mux3~0_combout $end
$var wire 1 ]$ Add0~114_combout $end
$var wire 1 ^$ Add0~112 $end
$var wire 1 _$ Add0~115_combout $end
$var wire 1 `$ Add0~117_combout $end
$var wire 1 a$ Y_temp[27]~reg0_q $end
$var wire 1 b$ Y_temp[28]~27_combout $end
$var wire 1 c$ A[29]~input_o $end
$var wire 1 d$ B[29]~input_o $end
$var wire 1 e$ Mux2~0_combout $end
$var wire 1 f$ Add0~118_combout $end
$var wire 1 g$ Add0~116 $end
$var wire 1 h$ Add0~119_combout $end
$var wire 1 i$ Add0~121_combout $end
$var wire 1 j$ Y_temp[28]~reg0_q $end
$var wire 1 k$ Y_temp[29]~28_combout $end
$var wire 1 l$ A[30]~input_o $end
$var wire 1 m$ B[30]~input_o $end
$var wire 1 n$ Mux1~0_combout $end
$var wire 1 o$ Add0~122_combout $end
$var wire 1 p$ Add0~120 $end
$var wire 1 q$ Add0~123_combout $end
$var wire 1 r$ Add0~125_combout $end
$var wire 1 s$ Y_temp[29]~reg0_q $end
$var wire 1 t$ Y_temp[30]~29_combout $end
$var wire 1 u$ B[31]~input_o $end
$var wire 1 v$ A[31]~input_o $end
$var wire 1 w$ Mux0~0_combout $end
$var wire 1 x$ Add0~126_combout $end
$var wire 1 y$ Add0~124 $end
$var wire 1 z$ Add0~127_combout $end
$var wire 1 {$ Add0~129_combout $end
$var wire 1 |$ Y_temp[30]~reg0_q $end
$var wire 1 }$ Mux32~0_combout $end
$var wire 1 ~$ Y_temp[31]~reg0_q $end
$var wire 1 !% Y[0]~reg0feeder_combout $end
$var wire 1 "% Y[0]~reg0_q $end
$var wire 1 #% Y[1]~reg0feeder_combout $end
$var wire 1 $% Y[1]~reg0_q $end
$var wire 1 %% Y[2]~reg0feeder_combout $end
$var wire 1 &% Y[2]~reg0_q $end
$var wire 1 '% Y[3]~reg0feeder_combout $end
$var wire 1 (% Y[3]~reg0_q $end
$var wire 1 )% Y[4]~reg0feeder_combout $end
$var wire 1 *% Y[4]~reg0_q $end
$var wire 1 +% Y[5]~reg0feeder_combout $end
$var wire 1 ,% Y[5]~reg0_q $end
$var wire 1 -% Y[6]~reg0feeder_combout $end
$var wire 1 .% Y[6]~reg0_q $end
$var wire 1 /% Y[7]~reg0feeder_combout $end
$var wire 1 0% Y[7]~reg0_q $end
$var wire 1 1% Y[8]~reg0feeder_combout $end
$var wire 1 2% Y[8]~reg0_q $end
$var wire 1 3% Y[9]~reg0feeder_combout $end
$var wire 1 4% Y[9]~reg0_q $end
$var wire 1 5% Y[10]~reg0feeder_combout $end
$var wire 1 6% Y[10]~reg0_q $end
$var wire 1 7% Y[11]~reg0feeder_combout $end
$var wire 1 8% Y[11]~reg0_q $end
$var wire 1 9% Y[12]~reg0feeder_combout $end
$var wire 1 :% Y[12]~reg0_q $end
$var wire 1 ;% Y[13]~reg0feeder_combout $end
$var wire 1 <% Y[13]~reg0_q $end
$var wire 1 =% Y[14]~reg0feeder_combout $end
$var wire 1 >% Y[14]~reg0_q $end
$var wire 1 ?% Y[15]~reg0feeder_combout $end
$var wire 1 @% Y[15]~reg0_q $end
$var wire 1 A% Y[16]~reg0feeder_combout $end
$var wire 1 B% Y[16]~reg0_q $end
$var wire 1 C% Y[17]~reg0feeder_combout $end
$var wire 1 D% Y[17]~reg0_q $end
$var wire 1 E% Y[18]~reg0feeder_combout $end
$var wire 1 F% Y[18]~reg0_q $end
$var wire 1 G% Y[19]~reg0feeder_combout $end
$var wire 1 H% Y[19]~reg0_q $end
$var wire 1 I% Y[20]~reg0feeder_combout $end
$var wire 1 J% Y[20]~reg0_q $end
$var wire 1 K% Y[21]~reg0feeder_combout $end
$var wire 1 L% Y[21]~reg0_q $end
$var wire 1 M% Y[22]~reg0feeder_combout $end
$var wire 1 N% Y[22]~reg0_q $end
$var wire 1 O% Y[23]~reg0feeder_combout $end
$var wire 1 P% Y[23]~reg0_q $end
$var wire 1 Q% Y[24]~reg0feeder_combout $end
$var wire 1 R% Y[24]~reg0_q $end
$var wire 1 S% Y[25]~reg0feeder_combout $end
$var wire 1 T% Y[25]~reg0_q $end
$var wire 1 U% Y[26]~reg0feeder_combout $end
$var wire 1 V% Y[26]~reg0_q $end
$var wire 1 W% Y[27]~reg0feeder_combout $end
$var wire 1 X% Y[27]~reg0_q $end
$var wire 1 Y% Y[28]~reg0feeder_combout $end
$var wire 1 Z% Y[28]~reg0_q $end
$var wire 1 [% Y[29]~reg0feeder_combout $end
$var wire 1 \% Y[29]~reg0_q $end
$var wire 1 ]% Y[30]~reg0feeder_combout $end
$var wire 1 ^% Y[30]~reg0_q $end
$var wire 1 _% Y[31]~reg0feeder_combout $end
$var wire 1 `% Y[31]~reg0_q $end
$upscope $end
$upscope $end
$enddefinitions $end
#0
$dumpvars
b1000100000 !
b100000010 "
0#
b0 $
bz %
0E
0D
0C
0B
0A
0@
0?
0>
0=
0<
0;
0:
09
08
07
06
05
04
03
02
01
00
0/
0.
0-
0,
0+
0*
0)
0(
0'
0&
0e
0d
0c
0b
0a
0`
0_
0^
0]
0\
0[
0Z
0Y
0X
0W
0V
0U
0T
0S
0R
0Q
0P
0O
0N
0M
0L
0K
0J
0I
0H
0G
0F
0f
1g
xh
1i
1j
1k
0l
0m
0n
0o
0p
0q
0r
0s
0t
0u
0v
0w
0x
0y
0z
0{
0|
0}
0~
0!!
0"!
0#!
0$!
0%!
0&!
0'!
0(!
0)!
0*!
0+!
0,!
0-!
0.!
z/!
z0!
01!
02!
03!
04!
05!
06!
07!
08!
09!
0:!
0;!
0<!
0=!
0>!
0?!
0@!
0A!
0B!
0C!
0D!
0E!
0F!
0G!
0H!
0I!
0J!
0K!
0L!
0M!
0N!
0O!
0P!
0Q!
0R!
0S!
0T!
0U!
0V!
0W!
0X!
0Y!
0Z!
0[!
0\!
0]!
0^!
0_!
0`!
0a!
0b!
0c!
0d!
0e!
0f!
0g!
0h!
0i!
0j!
0k!
0l!
0m!
0n!
0o!
0p!
0q!
0r!
0s!
0t!
1u!
0v!
1w!
0x!
0y!
0z!
0{!
1|!
1}!
1~!
0!"
0""
0#"
1$"
0%"
0&"
0'"
0("
0)"
0*"
0+"
0,"
0-"
0."
0/"
00"
01"
02"
03"
04"
05"
06"
07"
08"
19"
0:"
0;"
0<"
0="
0>"
0?"
0@"
0A"
0B"
0C"
0D"
0E"
0F"
0G"
0H"
1I"
1J"
1K"
1L"
1M"
0N"
1O"
0P"
0Q"
0R"
0S"
0T"
0U"
0V"
0W"
0X"
0Y"
0Z"
0["
1\"
0]"
0^"
0_"
0`"
0a"
0b"
1c"
0d"
1e"
0f"
1g"
0h"
0i"
0j"
1k"
0l"
0m"
1n"
1o"
1p"
1q"
0r"
1s"
0t"
0u"
0v"
0w"
0x"
0y"
0z"
0{"
0|"
0}"
0~"
0!#
0"#
1##
0$#
0%#
0&#
0'#
0(#
0)#
0*#
0+#
0,#
0-#
0.#
0/#
00#
01#
02#
03#
14#
05#
06#
07#
08#
09#
0:#
0;#
0<#
0=#
0>#
0?#
0@#
0A#
0B#
0C#
0D#
0E#
1F#
0G#
0H#
0I#
0J#
0K#
0L#
0M#
0N#
0O#
0P#
0Q#
0R#
0S#
0T#
0U#
0V#
0W#
1X#
0Y#
0Z#
0[#
0\#
0]#
0^#
0_#
0`#
0a#
0b#
0c#
0d#
0e#
0f#
0g#
0h#
0i#
0j#
1k#
0l#
0m#
0n#
0o#
0p#
0q#
0r#
0s#
0t#
0u#
0v#
0w#
0x#
0y#
0z#
0{#
1|#
0}#
0~#
0!$
0"$
0#$
0$$
0%$
0&$
0'$
0($
0)$
0*$
0+$
0,$
0-$
0.$
0/$
10$
01$
02$
03$
04$
05$
06$
07$
08$
09$
0:$
0;$
0<$
0=$
0>$
0?$
0@$
0A$
0B$
1C$
0D$
0E$
0F$
0G$
0H$
0I$
0J$
0K$
0L$
0M$
0N$
0O$
0P$
0Q$
0R$
0S$
0T$
1U$
0V$
0W$
0X$
0Y$
0Z$
0[$
0\$
0]$
0^$
0_$
0`$
0a$
0b$
0c$
0d$
0e$
0f$
1g$
0h$
0i$
0j$
0k$
0l$
0m$
0n$
0o$
0p$
0q$
0r$
0s$
0t$
0u$
0v$
0w$
0x$
1y$
0z$
0{$
0|$
0}$
0~$
0!%
0"%
0#%
0$%
0%%
0&%
0'%
0(%
0)%
0*%
0+%
0,%
0-%
0.%
0/%
00%
01%
02%
03%
04%
05%
06%
07%
08%
09%
0:%
0;%
0<%
0=%
0>%
0?%
0@%
0A%
0B%
0C%
0D%
0E%
0F%
0G%
0H%
0I%
0J%
0K%
0L%
0M%
0N%
0O%
0P%
0Q%
0R%
0S%
0T%
0U%
0V%
0W%
0X%
0Y%
0Z%
0[%
0\%
0]%
0^%
0_%
0`%
$end
#5000
1#
1q!
1r!
1{"
1W"
16!
1:!
1`
1\
13%
1+%
1u
1q
#10000
0#
0q!
0r!
#15000
1#
1q!
1r!
14%
1,%
1V!
1Z!
1<
1@
#20000
b1000100001 !
b100000110 "
b100 $
0#
0q!
1x!
1,"
1{!
0r!
1%"
0}!
0$"
1-"
1h"
1&"
1""
0|!
0&"
1."
0~!
1/"
1}!
1$"
1j"
1*"
1'"
09"
0/"
0""
11"
0."
1~!
1&"
0'"
1:"
01"
19"
1/"
1""
14"
0*"
1'"
1;"
0:"
11"
04"
1*"
0;"
1="
14"
0="
#25000
1#
1q!
1r!
1r"
1<"
13"
1)"
11!
12!
13!
19!
1e
1d
1c
1]
11%
1%%
1#%
1!%
1t
1n
1m
1l
#30000
0#
0q!
0r!
#35000
1#
1q!
1r!
12%
1&%
1$%
1"%
1Q!
1R!
1S!
1Y!
1=
1C
1D
1E
