BAUDGENERATOR/simulation/qsim/HWSetEQ3.msim.vcd
$comment
	File created using the following command:
		vcd file HWSetEQ3.msim.vcd -direction
$end
$date
	Thu Oct 19 21:00:32 2017
$end
$version
	ModelSim Version 10.5b
$end
$timescale
	1ps
$end

$scope module HWSetEQ3_vlg_vec_tst $end
$var reg 1 ! Baud_select $end
$var reg 1 " Clk $end
$var reg 1 # Reset $end
$var wire 1 $ Clock_out $end

$scope module i1 $end
$var wire 1 % gnd $end
$var wire 1 & vcc $end
$var wire 1 ' unknown $end
$var tri1 1 ( devclrn $end
$var tri1 1 ) devpor $end
$var tri1 1 * devoe $end
$var wire 1 + Baud_select~input_o $end
$var wire 1 , ~QUARTUS_CREATED_GND~I_combout $end
$var wire 1 - ~QUARTUS_CREATED_UNVM~~busy $end
$var wire 1 . ~QUARTUS_CREATED_ADC1~~eoc $end
$var wire 1 / Clock_out~output_o $end
$var wire 1 0 Clk~input_o $end
$var wire 1 1 Clk~inputclkctrl_outclk $end
$var wire 1 2 Reset~input_o $end
$var wire 1 3 Add0~0_combout $end
$var wire 1 4 baud_value~0_combout $end
$var wire 1 5 Add0~1 $end
$var wire 1 6 Add0~2_combout $end
$var wire 1 7 baud_value~1_combout $end
$var wire 1 8 Add0~3 $end
$var wire 1 9 Add0~4_combout $end
$var wire 1 : baud_value~2_combout $end
$var wire 1 ; Add0~5 $end
$var wire 1 < Add0~6_combout $end
$var wire 1 = baud_value~3_combout $end
$var wire 1 > Add0~7 $end
$var wire 1 ? Add0~8_combout $end
$var wire 1 @ baud_value~4_combout $end
$var wire 1 A Add0~9 $end
$var wire 1 B Add0~10_combout $end
$var wire 1 C baud_value~5_combout $end
$var wire 1 D Add0~11 $end
$var wire 1 E Add0~12_combout $end
$var wire 1 F baud_value~6_combout $end
$var wire 1 G Add0~13 $end
$var wire 1 H Add0~15 $end
$var wire 1 I Add0~16_combout $end
$var wire 1 J baud_value~8_combout $end
$var wire 1 K Add0~17 $end
$var wire 1 L Add0~18_combout $end
$var wire 1 M baud_value~9_combout $end
$var wire 1 N Add0~19 $end
$var wire 1 O Add0~21 $end
$var wire 1 P Add0~22_combout $end
$var wire 1 Q Add0~23 $end
$var wire 1 R Add0~24_combout $end
$var wire 1 S baud_value~11_combout $end
$var wire 1 T Add0~25 $end
$var wire 1 U Add0~26_combout $end
$var wire 1 V Add0~27 $end
$var wire 1 W Add0~28_combout $end
$var wire 1 X Add0~29 $end
$var wire 1 Y Add0~30_combout $end
$var wire 1 Z Equal0~4_combout $end
$var wire 1 [ baud_value~10_combout $end
$var wire 1 \ Add0~20_combout $end
$var wire 1 ] Equal0~3_combout $end
$var wire 1 ^ baud_value~7_combout $end
$var wire 1 _ Add0~14_combout $end
$var wire 1 ` Equal0~0_combout $end
$var wire 1 a Equal0~1_combout $end
$var wire 1 b Equal0~2_combout $end
$var wire 1 c Clock_out~0_combout $end
$var wire 1 d Clock_out~reg0_q $end
$var wire 1 e baud_value [15] $end
$var wire 1 f baud_value [14] $end
$var wire 1 g baud_value [13] $end
$var wire 1 h baud_value [12] $end
$var wire 1 i baud_value [11] $end
$var wire 1 j baud_value [10] $end
$var wire 1 k baud_value [9] $end
$var wire 1 l baud_value [8] $end
$var wire 1 m baud_value [7] $end
$var wire 1 n baud_value [6] $end
$var wire 1 o baud_value [5] $end
$var wire 1 p baud_value [4] $end
$var wire 1 q baud_value [3] $end
$var wire 1 r baud_value [2] $end
$var wire 1 s baud_value [1] $end
$var wire 1 t baud_value [0] $end
$upscope $end
$upscope $end
$enddefinitions $end
#0
$dumpvars
1!
0"
0#
0$
0%
1&
x'
1(
1)
1*
1+
0,
z-
z.
0/
00
01
02
13
14
05
06
07
18
09
0:
0;
0<
0=
1>
0?
0@
0A
0B
0C
1D
0E
0F
0G
1H
0I
0J
0K
0L
0M
1N
0O
0P
1Q
0R
0S
0T
0U
1V
0W
0X
0Y
0Z
0[
0\
0]
0^
0_
0`
0a
0b
0c
0d
0t
0s
0r
0q
0p
0o
0n
0m
0l
0k
0j
0i
0h
0g
0f
0e
$end
#5000
1"
10
11
1t
15
03
16
04
17
#10000
0"
00
01
#15000
1"
10
11
1s
0t
08
06
05
13
19
18
16
07
14
09
1:
17
0:
#20000
0"
00
01
#25000
1"
10
11
1t
15
03
08
06
04
19
07
1:
#30000
0"
00
01
#35000
1"
10
11
1r
0s
0t
1;
09
18
16
05
13
1<
0;
19
06
0:
17
14
0<
1=
1:
07
0=
#40000
0"
00
01
#45000
1"
10
11
1t
15
03
16
04
17
#50000
0"
00
01
#55000
1"
10
11
1s
0t
08
06
05
13
1;
09
18
16
07
14
1<
0;
19
0:
17
1`
0<
1=
1:
0`
0=
#60000
0"
00
01
#65000
1"
10
11
1t
15
03
08
06
04
1;
09
07
1<
0:
1=
#70000
0"
00
01
#75000
1"
10
11
1q
0r
0s
0t
0>
0<
0;
19
18
16
05
13
1?
1>
1<
09
06
0=
1:
17
14
0?
1@
1=
0:
07
0@
#80000
0"
00
01
#85000
1"
10
11
1t
15
03
16
04
17
#90000
0"
00
01
#95000
1"
10
11
1s
0t
08
06
05
13
19
18
16
07
14
1`
09
1:
17
0`
0:
#100000
0"
00
01
#105000
1"
10
11
1t
15
03
08
06
04
19
07
1:
#110000
0"
00
01
#115000
1"
10
11
1r
0s
0t
1;
09
18
16
05
13
0>
0<
0;
19
06
0:
17
14
1?
1>
1<
0=
1:
07
0?
1@
1=
0@
#120000
0"
00
01
#125000
1"
10
11
1t
15
03
16
04
17
#130000
0"
00
01
#135000
1"
10
11
1s
0t
08
06
05
13
1;
09
18
16
07
14
0>
0<
0;
19
0:
17
1?
1>
1<
0=
1:
0?
1`
1@
1=
0@
#140000
0"
00
01
#145000
1"
10
11
1t
15
03
08
06
0`
04
1;
09
07
0>
0<
0:
1?
0=
1@
#150000
0"
00
01
#155000
1"
10
11
1p
0q
0r
0s
0t
1A
0?
1>
1<
0;
19
18
16
05
13
1B
0A
1?
1`
0<
09
06
0@
1=
1:
17
14
1a
0B
0`
1C
1@
0=
0:
07
0a
0C
#160000
0"
00
01
#165000
1"
10
11
1t
15
03
16
04
17
#170000
0"
00
01
#175000
1"
10
11
1s
0t
08
06
05
13
19
18
16
07
14
09
1:
17
0:
#180000
0"
00
01
#185000
1"
10
11
1t
15
03
08
06
04
19
07
1:
#190000
0"
00
01
#195000
1"
10
11
1r
0s
0t
1;
09
18
16
05
13
1<
0;
19
06
0:
17
14
0<
1=
1:
07
0=
#200000
0"
00
01
#205000
1"
10
11
1t
15
03
16
04
17
#210000
0"
00
01
#215000
1"
10
11
1s
0t
08
06
05
13
1;
09
18
16
07
14
1<
0;
19
0:
17
1`
0<
1=
1:
0`
0=
#220000
0"
00
01
#225000
1"
10
11
1t
15
03
08
06
04
1;
09
07
1<
0:
1=
#230000
0"
00
01
#235000
1"
10
11
1q
0r
0s
0t
0>
0<
0;
19
18
16
05
13
1A
0?
1>
1<
09
06
0=
1:
17
14
1B
0A
1?
0@
1=
0:
07
1a
0B
1C
1@
0a
0C
#240000
0"
00
01
#245000
1"
10
11
1t
15
03
16
04
17
#250000
0"
00
01
#255000
1"
10
11
1s
0t
08
06
05
13
19
18
16
07
14
1`
09
1:
17
0`
0:
#260000
0"
00
01
#265000
1"
10
11
1t
15
03
08
06
04
19
07
1:
#270000
0"
00
01
#275000
1"
10
11
1r
0s
0t
1;
09
18
16
05
13
0>
0<
0;
19
06
0:
17
14
1A
0?
1>
1<
0=
1:
07
1B
0A
1?
0@
1=
1a
0B
1C
1@
0a
0C
#280000
0"
00
01
#285000
1"
10
11
1t
15
03
16
04
17
#290000
0"
00
01
#295000
1"
10
11
1s
0t
08
06
05
13
1;
09
18
16
07
14
0>
0<
0;
19
0:
17
1A
0?
1>
1<
0=
1:
1B
0A
1?
1`
0@
1=
1a
0B
1C
1@
0a
0C
#300000
0"
00
01
#305000
1"
10
11
1t
15
03
08
06
0`
04
1;
09
07
0>
0<
0:
1A
0?
0=
1B
0@
1C
#310000
0"
00
01
#315000
1"
10
11
1o
0p
0q
0r
0s
0t
0D
0B
0A
1?
1>
1<
0;
19
18
16
05
13
1E
1D
1B
0?
1`
0<
09
06
0C
1@
1=
1:
17
14
0E
0`
1F
1C
0@
0=
0:
07
0F
#320000
0"
00
01
#325000
1"
10
11
1t
15
03
16
04
17
#330000
0"
00
01
#335000
1"
10
11
1s
0t
08
06
05
13
19
18
16
07
14
09
1:
17
0:
#340000
0"
00
01
#345000
1"
10
11
1t
15
03
08
06
04
19
07
1:
#350000
0"
00
01
#355000
1"
10
11
1r
0s
0t
1;
09
18
16
05
13
1<
0;
19
06
0:
17
14
0<
1=
1:
07
0=
#360000
0"
00
01
#365000
1"
10
11
1t
15
03
16
04
17
#370000
0"
00
01
#375000
1"
10
11
1s
0t
08
06
05
13
1;
09
18
16
07
14
1<
0;
19
0:
17
1`
0<
1=
1:
0`
0=
#380000
0"
00
01
#385000
1"
10
11
1t
15
03
08
06
04
1;
09
07
1<
0:
1=
#390000
0"
00
01
#395000
1"
10
11
1q
0r
0s
0t
0>
0<
0;
19
18
16
05
13
1?
1>
1<
09
06
0=
1:
17
14
1a
0?
1@
1=
0:
07
0a
0@
#400000
0"
00
01
#405000
1"
10
11
1t
15
03
16
04
17
#410000
0"
00
01
#415000
1"
10
11
1s
0t
08
06
05
13
19
18
16
07
14
1`
09
1:
17
0`
0:
#420000
0"
00
01
#425000
1"
10
11
1t
15
03
08
06
04
19
07
1:
#430000
0"
00
01
#435000
1"
10
11
1r
0s
0t
1;
09
18
16
05
13
0>
0<
0;
19
06
0:
17
14
1?
1>
1<
0=
1:
07
1a
0?
1@
1=
0a
0@
#440000
0"
00
01
#445000
1"
10
11
1t
15
03
16
04
17
#450000
0"
00
01
#455000
1"
10
11
1s
0t
08
06
05
13
1;
09
18
16
07
14
0>
0<
0;
19
0:
17
1?
1>
1<
0=
1:
1a
0?
1`
1@
1=
0a
0@
#460000
0"
00
01
#465000
1"
10
11
1t
15
03
08
06
0`
04
1;
09
07
0>
0<
0:
1?
0=
1a
1@
#470000
0"
00
01
#475000
1"
10
11
1p
0q
0r
0s
0t
1A
0?
1>
1<
0;
19
18
16
05
13
0D
0B
0a
0A
1?
1`
0<
09
06
0@
1=
1:
17
14
1E
1D
1B
0`
0C
1@
0=
0:
07
0E
1a
1F
1C
0F
#480000
0"
00
01
#485000
1"
10
11
1t
15
03
16
04
17
#490000
0"
00
01
#495000
1"
10
11
1s
0t
08
06
05
13
19
18
16
07
14
09
1:
17
0:
#500000
0"
00
01
#505000
1"
10
11
1t
15
03
08
06
04
19
07
1:
#510000
0"
00
01
#515000
1"
10
11
1r
0s
0t
1;
09
18
16
05
13
1<
0;
19
06
0:
17
14
0<
1=
1:
07
0=
#520000
0"
00
01
#525000
1"
10
11
1t
15
03
16
04
17
#530000
0"
00
01
#535000
1"
10
11
1s
0t
08
06
05
13
1;
09
18
16
07
14
1<
0;
19
0:
17
1`
0<
1=
1:
0`
0=
#540000
0"
00
01
#545000
1"
10
11
1t
15
03
08
06
04
1;
09
07
1<
0:
1=
#550000
0"
00
01
#555000
1"
10
11
1q
0r
0s
0t
0>
0<
0;
19
18
16
05
13
1A
0?
1>
1<
09
06
0=
1:
17
14
0D
0B
0a
0A
1?
0@
1=
0:
07
1E
1D
1B
0C
1@
0E
1a
1F
1C
0F
#560000
0"
00
01
#565000
1"
10
11
1t
15
03
16
04
17
#570000
0"
00
01
#575000
1"
10
11
1s
0t
08
06
05
13
19
18
16
07
14
1`
09
1:
17
0`
0:
#580000
0"
00
01
#585000
1"
10
11
1t
15
03
08
06
04
19
07
1:
#590000
0"
00
01
#595000
1"
10
11
1r
0s
0t
1;
09
18
16
05
13
0>
0<
0;
19
06
0:
17
14
1A
0?
1>
1<
0=
1:
07
0D
0B
0a
0A
1?
0@
1=
1E
1D
1B
0C
1@
0E
1a
1F
1C
0F
#600000
0"
00
01
#605000
1"
10
11
1t
15
03
16
04
17
#610000
0"
00
01
#615000
1"
10
11
1s
0t
08
06
05
13
1;
09
18
16
07
14
0>
0<
0;
19
0:
17
1A
0?
1>
1<
0=
1:
0D
0B
0a
0A
1?
1`
0@
1=
1E
1D
1B
0C
1@
0E
1a
1F
1C
0F
#620000
0"
00
01
#625000
1"
10
11
1t
15
03
08
06
0`
04
1;
09
07
0>
0<
0:
1A
0?
0=
0D
0B
0a
0@
1E
0C
1F
#630000
0"
00
01
#635000
1"
10
11
1n
0o
0p
0q
0r
0s
0t
1G
0E
1D
1B
0A
1?
1>
1<
0;
19
18
16
05
13
1_
0G
1E
1a
0B
0?
1`
0<
09
06
0F
1C
1@
1=
1:
17
14
1b
0_
0a
0`
1^
1F
0C
0@
0=
0:
07
0b
0^
#640000
0"
00
01
#645000
1"
10
11
1t
15
03
16
04
17
#650000
0"
00
01
#655000
1"
10
11
1s
0t
08
06
05
13
19
18
16
07
14
09
1:
17
0:
#660000
0"
00
01
#665000
1"
10
11
1t
15
03
08
06
04
19
07
1:
#670000
0"
00
01
#675000
1"
10
11
1r
0s
0t
1;
09
18
16
05
13
1<
0;
19
06
0:
17
14
0<
1=
1:
07
0=
#680000
0"
00
01
#685000
1"
10
11
1t
15
03
16
04
17
#690000
0"
00
01
#695000
1"
10
11
1s
0t
08
06
05
13
1;
09
18
16
07
14
1<
0;
19
0:
17
1`
0<
1=
1:
0`
0=
#700000
0"
00
01
#705000
1"
10
11
1t
15
03
08
06
04
1;
09
07
1<
0:
1=
#710000
0"
00
01
#715000
1"
10
11
1q
0r
0s
0t
0>
0<
0;
19
18
16
05
13
1?
1>
1<
09
06
0=
1:
17
14
0?
1@
1=
0:
07
0@
#720000
0"
00
01
#725000
1"
10
11
1t
15
03
16
04
17
#730000
0"
00
01
#735000
1"
10
11
1s
0t
08
06
05
13
19
18
16
07
14
1`
09
1:
17
0`
0:
#740000
0"
00
01
#745000
1"
10
11
1t
15
03
08
06
04
19
07
1:
#750000
0"
00
01
#755000
1"
10
11
1r
0s
0t
1;
09
18
16
05
13
0>
0<
0;
19
06
0:
17
14
1?
1>
1<
0=
1:
07
0?
1@
1=
0@
#760000
0"
00
01
#765000
1"
10
11
1t
15
03
16
04
17
#770000
0"
00
01
#775000
1"
10
11
1s
0t
08
06
05
13
1;
09
18
16
07
14
0>
0<
0;
19
0:
17
1?
1>
1<
0=
1:
0?
1`
1@
1=
0@
#780000
0"
00
01
#785000
1"
10
11
1t
15
03
08
06
0`
04
1;
09
07
0>
0<
0:
1?
0=
1@
#790000
0"
00
01
#795000
1"
10
11
1p
0q
0r
0s
0t
1A
0?
1>
1<
0;
19
18
16
05
13
1B
0A
1?
1`
0<
09
06
0@
1=
1:
17
14
1a
0B
0`
1C
1@
0=
0:
07
0a
0C
#800000
0"
00
01
#805000
1"
10
11
1t
15
03
16
04
17
#810000
0"
00
01
#815000
1"
10
11
1s
0t
08
06
05
13
19
18
16
07
14
09
1:
17
0:
#820000
0"
00
01
#825000
1"
10
11
1t
15
03
08
06
04
19
07
1:
#830000
0"
00
01
#835000
1"
10
11
1r
0s
0t
1;
09
18
16
05
13
1<
0;
19
06
0:
17
14
0<
1=
1:
07
0=
#840000
0"
00
01
#845000
1"
10
11
1t
15
03
16
04
17
#850000
0"
00
01
#855000
1"
10
11
1s
0t
08
06
05
13
1;
09
18
16
07
14
1<
0;
19
0:
17
1`
0<
1=
1:
0`
0=
#860000
0"
00
01
#865000
1"
10
11
1t
15
03
08
06
04
1;
09
07
1<
0:
1=
#870000
0"
00
01
#875000
1"
10
11
1q
0r
0s
0t
0>
0<
0;
19
18
16
05
13
1A
0?
1>
1<
09
06
0=
1:
17
14
1B
0A
1?
0@
1=
0:
07
1a
0B
1C
1@
0a
0C
#880000
0"
00
01
#885000
1"
10
11
1t
15
03
16
04
17
#890000
0"
00
01
#895000
1"
10
11
1s
0t
08
06
05
13
19
18
16
07
14
1`
09
1:
17
0`
0:
#900000
0"
00
01
#905000
1"
10
11
1t
15
03
08
06
04
19
07
1:
#910000
0"
00
01
#915000
1"
10
11
1r
0s
0t
1;
09
18
16
05
13
0>
0<
0;
19
06
0:
17
14
1A
0?
1>
1<
0=
1:
07
1B
0A
1?
0@
1=
1a
0B
1C
1@
0a
0C
#920000
0"
00
01
#925000
1"
10
11
1t
15
03
16
04
17
#930000
0"
00
01
#935000
1"
10
11
1s
0t
08
06
05
13
1;
09
18
16
07
14
0>
0<
0;
19
0:
17
1A
0?
1>
1<
0=
1:
1B
0A
1?
1`
0@
1=
1a
0B
1C
1@
0a
0C
#940000
0"
00
01
#945000
1"
10
11
1t
15
03
08
06
0`
04
1;
09
07
0>
0<
0:
1A
0?
0=
1B
0@
1C
#950000
0"
00
01
#955000
1"
10
11
1o
0p
0q
0r
0s
0t
0D
0B
0A
1?
1>
1<
0;
19
18
16
05
13
1G
0E
1D
1B
0?
1`
0<
09
06
0C
1@
1=
1:
17
14
1_
0G
1E
0`
0F
1C
0@
0=
0:
07
0_
1^
1F
0^
#960000
0"
00
01
#965000
1"
10
11
1t
15
03
16
04
17
#970000
0"
00
01
#975000
1"
10
11
1s
0t
08
06
05
13
19
18
16
07
14
09
1:
17
0:
#980000
0"
00
01
#985000
1"
10
11
1t
15
03
08
06
04
19
07
1:
#990000
0"
00
01
#995000
1"
10
11
1r
0s
0t
1;
09
18
16
05
13
1<
0;
19
06
0:
17
14
0<
1=
1:
07
0=
#999000
0!
0+
#1000000
0"
00
01
#1005000
1"
10
11
1t
15
03
16
04
17
#1010000
0"
00
01
#1015000
1"
10
11
1s
0t
08
06
05
13
1;
09
18
16
07
14
1<
0;
19
0:
17
1`
0<
1=
1:
0`
0=
#1020000
0"
00
01
#1025000
1"
10
11
1t
15
03
08
06
04
1;
09
07
1<
0:
1=
#1030000
0"
00
01
#1035000
1"
10
11
1q
0r
0s
0t
0>
0<
0;
19
18
16
05
13
1?
1>
1<
09
06
0=
1:
17
14
1a
0?
1@
1=
0:
07
0a
0@
#1040000
0"
00
01
#1045000
1"
10
11
1t
15
03
16
04
17
#1050000
0"
00
01
#1055000
1"
10
11
1s
0t
08
06
05
13
19
18
16
07
14
1`
09
1:
17
0`
0:
#1060000
0"
00
01
#1065000
1"
10
11
1t
15
03
08
06
04
19
07
1:
#1070000
0"
00
01
#1075000
1"
10
11
1r
0s
0t
1;
09
18
16
05
13
0>
0<
0;
19
06
0:
17
14
1?
1>
1<
0=
1:
07
1a
0?
1@
1=
0a
0@
#1080000
0"
00
01
#1085000
1"
10
11
1t
15
03
16
04
17
#1090000
0"
00
01
#1095000
1"
10
11
1s
0t
08
06
05
13
1;
09
18
16
07
14
0>
0<
0;
19
0:
17
1?
1>
1<
0=
1:
1a
0?
1`
1@
1=
0a
0@
#1100000
0"
00
01
#1105000
1"
10
11
1t
15
03
08
06
0`
04
1;
09
07
0>
0<
0:
1?
0=
1a
1@
#1110000
0"
00
01
#1115000
1"
10
11
1p
0q
0r
0s
0t
1A
0?
1>
1<
0;
19
18
16
05
13
0D
0B
0a
0A
1?
1`
0<
09
06
0@
1=
1:
17
14
1G
0E
1D
1B
0`
0C
1@
0=
0:
07
1_
0G
1E
1a
0F
1C
0_
1^
1F
0^
#1120000
0"
00
01
#1125000
1"
10
11
1t
15
03
16
04
17
#1130000
0"
00
01
#1135000
1"
10
11
1s
0t
08
06
05
13
19
18
16
07
14
09
1:
17
0:
#1140000
0"
00
01
#1145000
1"
10
11
1t
15
03
08
06
04
19
07
1:
#1150000
0"
00
01
#1155000
1"
10
11
1r
0s
0t
1;
09
18
16
05
13
1<
0;
19
06
0:
17
14
0<
1=
1:
07
0=
#1160000
0"
00
01
#1165000
1"
10
11
1t
15
03
16
04
17
#1170000
0"
00
01
#1175000
1"
10
11
1s
0t
08
06
05
13
1;
09
18
16
07
14
1<
0;
19
0:
17
1`
0<
1=
1:
0`
0=
#1180000
0"
00
01
#1185000
1"
10
11
1t
15
03
08
06
04
1;
09
07
1<
0:
1=
#1190000
0"
00
01
#1195000
1"
10
11
1q
0r
0s
0t
0>
0<
0;
19
18
16
05
13
1A
0?
1>
1<
09
06
0=
1:
17
14
0D
0B
0a
0A
1?
0@
1=
0:
07
1G
0E
1D
1B
0C
1@
1_
0G
1E
1a
0F
1C
0_
1^
1F
0^
#1200000
0"
00
01
#1205000
1"
10
11
1t
15
03
16
04
17
#1210000
0"
00
01
#1215000
1"
10
11
1s
0t
08
06
05
13
19
18
16
07
14
1`
09
1:
17
0`
0:
#1220000
0"
00
01
#1225000
1"
10
11
1t
15
03
08
06
04
19
07
1:
#1230000
0"
00
01
#1235000
1"
10
11
1r
0s
0t
1;
09
18
16
05
13
0>
0<
0;
19
06
0:
17
14
1A
0?
1>
1<
0=
1:
07
0D
0B
0a
0A
1?
0@
1=
1G
0E
1D
1B
0C
1@
1_
0G
1E
1a
0F
1C
0_
1^
1F
0^
#1240000
0"
00
01
#1245000
1"
10
11
1t
15
03
16
04
17
#1250000
0"
00
01
#1255000
1"
10
11
1s
0t
08
06
05
13
1;
09
18
16
07
14
0>
0<
0;
19
0:
17
1A
0?
1>
1<
0=
1:
0D
0B
0a
0A
1?
1`
0@
1=
1G
0E
1D
1B
0C
1@
1_
0G
1E
1a
0F
1C
1b
0_
1^
1F
0b
0^
#1260000
0"
00
01
#1265000
1"
10
11
1t
15
03
08
06
0`
04
1;
09
07
0>
0<
0:
1A
0?
0=
0D
0B
0a
0@
1G
0E
0C
1_
0F
1^
#1270000
0"
00
01
#1275000
1"
10
11
1m
0n
0o
0p
0q
0r
0s
0t
0H
0_
0G
1E
1D
1B
0A
1?
1>
1<
0;
19
18
16
05
13
1I
1H
1_
0E
1a
0B
0?
1`
0<
09
06
0^
1F
1C
1@
1=
1:
17
14
0I
0a
0`
1J
1^
0F
0C
0@
0=
0:
07
0J
#1280000
0"
00
01
#1285000
1"
10
11
1t
15
03
16
04
17
#1290000
0"
00
01
#1295000
1"
10
11
1s
0t
08
06
05
13
19
18
16
07
14
09
1:
17
0:
#1300000
0"
00
01
#1305000
1"
10
11
1t
15
03
08
06
04
19
07
1:
#1310000
0"
00
01
#1315000
1"
10
11
1r
0s
0t
1;
09
18
16
05
13
1<
0;
19
06
0:
17
14
0<
1=
1:
07
0=
#1320000
0"
00
01
#1325000
1"
10
11
1t
15
03
16
04
17
#1330000
0"
00
01
#1335000
1"
10
11
1s
0t
08
06
05
13
1;
09
18
16
07
14
1<
0;
19
0:
17
1`
0<
1=
1:
0`
0=
#1340000
0"
00
01
#1345000
1"
10
11
1t
15
03
08
06
04
1;
09
07
1<
0:
1=
#1350000
0"
00
01
#1355000
1"
10
11
1q
0r
0s
0t
0>
0<
0;
19
18
16
05
13
1?
1>
1<
09
06
0=
1:
17
14
0?
1@
1=
0:
07
0@
#1360000
0"
00
01
#1365000
1"
10
11
1t
15
03
16
04
17
#1370000
0"
00
01
#1375000
1"
10
11
1s
0t
08
06
05
13
19
18
16
07
14
1`
09
1:
17
0`
0:
#1380000
0"
00
01
#1385000
1"
10
11
1t
15
03
08
06
04
19
07
1:
#1390000
0"
00
01
#1395000
1"
10
11
1r
0s
0t
1;
09
18
16
05
13
0>
0<
0;
19
06
0:
17
14
1?
1>
1<
0=
1:
07
0?
1@
1=
0@
#1400000
0"
00
01
#1405000
1"
10
11
1t
15
03
16
04
17
#1410000
0"
00
01
#1415000
1"
10
11
1s
0t
08
06
05
13
1;
09
18
16
07
14
0>
0<
0;
19
0:
17
1?
1>
1<
0=
1:
0?
1`
1@
1=
0@
#1420000
0"
00
01
#1425000
1"
10
11
1t
15
03
08
06
0`
04
1;
09
07
0>
0<
0:
1?
0=
1@
#1430000
0"
00
01
#1435000
1"
10
11
1p
0q
0r
0s
0t
1A
0?
1>
1<
0;
19
18
16
05
13
1B
0A
1?
1`
0<
09
06
0@
1=
1:
17
14
1a
0B
0`
1C
1@
0=
0:
07
0a
0C
#1440000
0"
00
01
#1445000
1"
10
11
1t
15
03
16
04
17
#1450000
0"
00
01
#1455000
1"
10
11
1s
0t
08
06
05
13
19
18
16
07
14
09
1:
17
0:
#1460000
0"
00
01
#1465000
1"
10
11
1t
15
03
08
06
04
19
07
1:
#1470000
0"
00
01
#1475000
1"
10
11
1r
0s
0t
1;
09
18
16
05
13
1<
0;
19
06
0:
17
14
0<
1=
1:
07
0=
#1480000
0"
00
01
#1485000
1"
10
11
1t
15
03
16
04
17
#1490000
0"
00
01
#1495000
1"
10
11
1s
0t
08
06
05
13
1;
09
18
16
07
14
1<
0;
19
0:
17
1`
0<
1=
1:
0`
0=
#1500000
0"
00
01
#1505000
1"
10
11
1t
15
03
08
06
04
1;
09
07
1<
0:
1=
#1510000
0"
00
01
#1515000
1"
10
11
1q
0r
0s
0t
0>
0<
0;
19
18
16
05
13
1A
0?
1>
1<
09
06
0=
1:
17
14
1B
0A
1?
0@
1=
0:
07
1a
0B
1C
1@
0a
0C
#1520000
0"
00
01
#1525000
1"
10
11
1t
15
03
16
04
17
#1530000
0"
00
01
#1535000
1"
10
11
1s
0t
08
06
05
13
19
18
16
07
14
1`
09
1:
17
0`
0:
#1540000
0"
00
01
#1545000
1"
10
11
1t
15
03
08
06
04
19
07
1:
#1550000
0"
00
01
#1555000
1"
10
11
1r
0s
0t
1;
09
18
16
05
13
0>
0<
0;
19
06
0:
17
14
1A
0?
1>
1<
0=
1:
07
1B
0A
1?
0@
1=
1a
0B
1C
1@
0a
0C
#1560000
0"
00
01
#1565000
1"
10
11
1t
15
03
16
04
17
#1570000
0"
00
01
#1575000
1"
10
11
1s
0t
08
06
05
13
1;
09
18
16
07
14
0>
0<
0;
19
0:
17
1A
0?
1>
1<
0=
1:
1B
0A
1?
1`
0@
1=
1a
0B
1C
1@
0a
0C
#1580000
0"
00
01
#1585000
1"
10
11
1t
15
03
08
06
0`
04
1;
09
07
0>
0<
0:
1A
0?
0=
1B
0@
1C
#1590000
0"
00
01
#1595000
1"
10
11
1o
0p
0q
0r
0s
0t
0D
0B
0A
1?
1>
1<
0;
19
18
16
05
13
1E
1D
1B
0?
1`
0<
09
06
0C
1@
1=
1:
17
14
0E
0`
1F
1C
0@
0=
0:
07
0F
#1600000
0"
00
01
#1605000
1"
10
11
1t
15
03
16
04
17
#1610000
0"
00
01
#1615000
1"
10
11
1s
0t
08
06
05
13
19
18
16
07
14
09
1:
17
0:
#1620000
0"
00
01
#1625000
1"
10
11
1t
15
03
08
06
04
19
07
1:
#1630000
0"
00
01
#1635000
1"
10
11
1r
0s
0t
1;
09
18
16
05
13
1<
0;
19
06
0:
17
14
0<
1=
1:
07
0=
#1640000
0"
00
01
#1645000
1"
10
11
1t
15
03
16
04
17
#1650000
0"
00
01
#1655000
1"
10
11
1s
0t
08
06
05
13
1;
09
18
16
07
14
1<
0;
19
0:
17
1`
0<
1=
1:
0`
0=
#1660000
0"
00
01
#1665000
1"
10
11
1t
15
03
08
06
04
1;
09
07
1<
0:
1=
#1670000
0"
00
01
#1675000
1"
10
11
1q
0r
0s
0t
0>
0<
0;
19
18
16
05
13
1?
1>
1<
09
06
0=
1:
17
14
1a
0?
1@
1=
0:
07
0a
0@
#1680000
0"
00
01
#1685000
1"
10
11
1t
15
03
16
04
17
#1690000
0"
00
01
#1695000
1"
10
11
1s
0t
08
06
05
13
19
18
16
07
14
1`
09
1:
17
0`
0:
#1700000
0"
00
01
#1705000
1"
10
11
1t
15
03
08
06
04
19
07
1:
#1710000
0"
00
01
#1715000
1"
10
11
1r
0s
0t
1;
09
18
16
05
13
0>
0<
0;
19
06
0:
17
14
1?
1>
1<
0=
1:
07
1a
0?
1@
1=
0a
0@
#1720000
0"
00
01
#1725000
1"
10
11
1t
15
03
16
04
17
#1730000
0"
00
01
#1735000
1"
10
11
1s
0t
08
06
05
13
1;
09
18
16
07
14
0>
0<
0;
19
0:
17
1?
1>
1<
0=
1:
1a
0?
1`
1@
1=
0a
0@
#1740000
0"
00
01
#1745000
1"
10
11
1t
15
03
08
06
0`
04
1;
09
07
0>
0<
0:
1?
0=
1a
1@
#1750000
0"
00
01
#1755000
1"
10
11
1p
0q
0r
0s
0t
1A
0?
1>
1<
0;
19
18
16
05
13
0D
0B
0a
0A
1?
1`
0<
09
06
0@
1=
1:
17
14
1E
1D
1B
0`
0C
1@
0=
0:
07
0E
1a
1F
1C
0F
#1760000
0"
00
01
#1765000
1"
10
11
1t
15
03
16
04
17
#1770000
0"
00
01
#1775000
1"
10
11
1s
0t
08
06
05
13
19
18
16
07
14
09
1:
17
0:
#1780000
0"
00
01
#1785000
1"
10
11
1t
15
03
08
06
04
19
07
1:
#1790000
0"
00
01
#1795000
1"
10
11
1r
0s
0t
1;
09
18
16
05
13
1<
0;
19
06
0:
17
14
0<
1=
1:
07
0=
#1800000
0"
00
01
#1805000
1"
10
11
1t
15
03
16
04
17
#1810000
0"
00
01
#1815000
1"
10
11
1s
0t
08
06
05
13
1;
09
18
16
07
14
1<
0;
19
0:
17
1`
0<
1=
1:
0`
0=
#1820000
0"
00
01
#1825000
1"
10
11
1t
15
03
08
06
04
1;
09
07
1<
0:
1=
#1830000
0"
00
01
#1835000
1"
10
11
1q
0r
0s
0t
0>
0<
0;
19
18
16
05
13
1A
0?
1>
1<
09
06
0=
1:
17
14
0D
0B
0a
0A
1?
0@
1=
0:
07
1E
1D
1B
0C
1@
0E
1a
1F
1C
0F
#1840000
0"
00
01
#1845000
1"
10
11
1t
15
03
16
04
17
#1850000
0"
00
01
#1855000
1"
10
11
1s
0t
08
06
05
13
19
18
16
07
14
1`
09
1:
17
0`
0:
#1860000
0"
00
01
#1865000
1"
10
11
1t
15
03
08
06
04
19
07
1:
#1870000
0"
00
01
